{
    "sprites": [
        {
            "box": [0, 0, 16, 6],
            "offset": [56, 76]
        },
        {
            "box": [16, 0, 16, 6],
            "offset": [56, 76]
        },
        {
            "box": [32, 0, 16, 6],
            "offset": [56, 76]
        },
        {
            "box": [48, 0, 16, 6],
            "offset": [56, 76]
        },
        {
            "box": [64, 0, 16, 6],
            "offset": [56, 76]
        },
        {
            "box": [80, 0, 16, 6],
            "offset": [56, 76]
        },
        {
            "box": [96, 0, 16, 6],
            "offset": [56, 76]
        },
        {
            "box": [0, 6, 12, 6],
            "offset": [57, 76]
        },
        {
            "box": [12, 6, 7, 6],
            "offset": [57, 76]
        },
        {
            "box": [19, 6, 10, 5],
            "offset": [59, 77]
        },
        {
            "box": [29, 6, 12, 6],
            "offset": [57, 76]
        },
        {
            "box": [41, 6, 12, 6],
            "offset": [57, 76]
        },
        {
            "box": [53, 6, 12, 6],
            "offset": [57, 76]
        },
        {
            "box": [65, 6, 12, 6],
            "offset": [57, 76]
        },
        {
            "box": [0, 12, 16, 6],
            "offset": [56, 76]
        },
        {
            "box": [16, 12, 14, 5],
            "offset": [57, 78]
        },
        {
            "box": [30, 12, 16, 4],
            "offset": [56, 78]
        },
        {
            "box": [46, 12, 16, 6],
            "offset": [56, 76]
        },
        {
            "box": [62, 12, 16, 6],
            "offset": [56, 76]
        },
        {
            "box": [78, 12, 16, 6],
            "offset": [56, 76]
        },
        {
            "box": [94, 12, 16, 6],
            "offset": [56, 76]
        },
        {
            "box": [0, 18, 16, 6],
            "offset": [56, 76]
        },
        {
            "box": [16, 18, 14, 7],
            "offset": [56, 76]
        },
        {
            "box": [30, 18, 12, 9],
            "offset": [57, 74]
        },
        {
            "box": [42, 18, 13, 9],
            "offset": [57, 74]
        },
        {
            "box": [55, 18, 14, 9],
            "offset": [57, 74]
        },
        {
            "box": [69, 18, 14, 9],
            "offset": [57, 74]
        },
        {
            "box": [83, 18, 14, 9],
            "offset": [57, 74]
        },
        {
            "box": [97, 18, 13, 9],
            "offset": [57, 74]
        },
        {
            "box": [0, 27, 12, 6],
            "offset": [57, 76]
        },
        {
            "box": [12, 27, 10, 6],
            "offset": [57, 76]
        },
        {
            "box": [22, 27, 12, 6],
            "offset": [57, 76]
        },
        {
            "box": [34, 27, 11, 5],
            "offset": [58, 77]
        },
        {
            "box": [45, 27, 12, 6],
            "offset": [55, 76]
        },
        {
            "box": [57, 27, 12, 6],
            "offset": [55, 76]
        },
        {
            "box": [69, 27, 12, 6],
            "offset": [55, 76]
        },
        {
            "box": [81, 27, 11, 5],
            "offset": [58, 77]
        },
        {
            "box": [0, 33, 16, 6],
            "offset": [56, 75]
        },
        {
            "box": [16, 33, 8, 5],
            "offset": [57, 76]
        },
        {
            "box": [24, 33, 8, 6],
            "offset": [63, 75]
        },
        {
            "box": [32, 33, 11, 6],
            "offset": [60, 75]
        },
        {
            "box": [43, 33, 9, 6],
            "offset": [62, 76]
        },
        {
            "box": [52, 33, 4, 5],
            "offset": [67, 77]
        },
        {
            "box": [56, 33, 9, 6],
            "offset": [62, 76]
        },
        {
            "box": [65, 33, 11, 6],
            "offset": [60, 75]
        },
        {
            "box": [0, 39, 16, 6],
            "offset": [56, 76]
        },
        {
            "box": [16, 39, 15, 6],
            "offset": [56, 76]
        },
        {
            "box": [31, 39, 14, 6],
            "offset": [57, 76]
        },
        {
            "box": [45, 39, 14, 6],
            "offset": [58, 77]
        },
        {
            "box": [59, 39, 15, 6],
            "offset": [56, 76]
        },
        {
            "box": [74, 39, 15, 6],
            "offset": [57, 76]
        },
        {
            "box": [89, 39, 14, 6],
            "offset": [57, 76]
        },
        {
            "box": [103, 39, 14, 6],
            "offset": [56, 77]
        },
        {
            "box": [117, 39, 15, 6],
            "offset": [57, 76]
        },
        {
            "box": [0, 45, 12, 6],
            "offset": [57, 76]
        },
        {
            "box": [12, 45, 12, 6],
            "offset": [57, 77]
        },
        {
            "box": [24, 45, 8, 6],
            "offset": [57, 77]
        },
        {
            "box": [32, 45, 12, 6],
            "offset": [57, 76]
        },
        {
            "box": [44, 45, 12, 6],
            "offset": [58, 76]
        },
        {
            "box": [56, 45, 12, 6],
            "offset": [58, 77]
        },
        {
            "box": [68, 45, 12, 6],
            "offset": [58, 77]
        },
        {
            "box": [80, 45, 12, 6],
            "offset": [58, 76]
        },
        {
            "box": [92, 45, 8, 6],
            "offset": [58, 76]
        },
        {
            "box": [0, 51, 16, 6],
            "offset": [56, 75]
        },
        {
            "box": [16, 51, 15, 6],
            "offset": [57, 75]
        },
        {
            "box": [31, 51, 14, 6],
            "offset": [57, 75]
        },
        {
            "box": [45, 51, 14, 6],
            "offset": [57, 76]
        },
        {
            "box": [59, 51, 14, 6],
            "offset": [57, 75]
        },
        {
            "box": [73, 51, 15, 6],
            "offset": [56, 75]
        },
        {
            "box": [88, 51, 14, 6],
            "offset": [57, 75]
        },
        {
            "box": [102, 51, 14, 6],
            "offset": [57, 76]
        },
        {
            "box": [116, 51, 14, 6],
            "offset": [57, 75]
        },
        {
            "box": [0, 57, 16, 6],
            "offset": [56, 75]
        },
        {
            "box": [16, 57, 15, 6],
            "offset": [57, 76]
        },
        {
            "box": [31, 57, 14, 6],
            "offset": [57, 75]
        },
        {
            "box": [45, 57, 15, 6],
            "offset": [58, 73]
        },
        {
            "box": [60, 57, 16, 6],
            "offset": [58, 74]
        },
        {
            "box": [76, 57, 16, 6],
            "offset": [58, 74]
        },
        {
            "box": [0, 63, 12, 6],
            "offset": [57, 76]
        },
        {
            "box": [12, 63, 11, 6],
            "offset": [57, 78]
        },
        {
            "box": [23, 63, 11, 6],
            "offset": [58, 77]
        },
        {
            "box": [34, 63, 12, 6],
            "offset": [56, 76]
        },
        {
            "box": [46, 63, 12, 6],
            "offset": [55, 76]
        },
        {
            "box": [58, 63, 12, 6],
            "offset": [55, 76]
        },
        {
            "box": [0, 69, 16, 6],
            "offset": [56, 76]
        },
        {
            "box": [16, 69, 11, 6],
            "offset": [56, 79]
        },
        {
            "box": [27, 69, 16, 6],
            "offset": [54, 76]
        },
        {
            "box": [43, 69, 12, 6],
            "offset": [57, 76]
        },
        {
            "box": [55, 69, 16, 6],
            "offset": [57, 76]
        },
        {
            "box": [71, 69, 15, 6],
            "offset": [58, 76]
        },
        {
            "box": [0, 75, 16, 6],
            "offset": [56, 75]
        },
        {
            "box": [16, 75, 13, 5],
            "offset": [56, 77]
        },
        {
            "box": [29, 75, 14, 8],
            "offset": [55, 75]
        },
        {
            "box": [43, 75, 13, 9],
            "offset": [56, 73]
        },
        {
            "box": [56, 75, 13, 9],
            "offset": [56, 73]
        },
        {
            "box": [69, 75, 13, 9],
            "offset": [56, 73]
        },
        {
            "box": [82, 75, 13, 9],
            "offset": [56, 73]
        },
        {
            "box": [95, 75, 13, 9],
            "offset": [56, 73]
        },
        {
            "box": [108, 75, 13, 9],
            "offset": [56, 73]
        },
        {
            "box": [121, 75, 13, 9],
            "offset": [56, 73]
        },
        {
            "box": [134, 75, 13, 9],
            "offset": [56, 73]
        },
        {
            "box": [147, 75, 13, 9],
            "offset": [56, 73]
        },
        {
            "box": [160, 75, 13, 9],
            "offset": [56, 73]
        },
        {
            "box": [0, 84, 12, 6],
            "offset": [58, 76]
        },
        {
            "box": [12, 84, 11, 6],
            "offset": [58, 76]
        },
        {
            "box": [23, 84, 12, 6],
            "offset": [58, 76]
        },
        {
            "box": [35, 84, 12, 6],
            "offset": [59, 78]
        },
        {
            "box": [47, 84, 12, 6],
            "offset": [58, 76]
        },
        {
            "box": [59, 84, 12, 6],
            "offset": [58, 76]
        },
        {
            "box": [71, 84, 12, 6],
            "offset": [58, 76]
        },
        {
            "box": [83, 84, 12, 6],
            "offset": [58, 76]
        },
        {
            "box": [95, 84, 12, 6],
            "offset": [58, 76]
        },
        {
            "box": [107, 84, 12, 6],
            "offset": [58, 76]
        },
        {
            "box": [119, 84, 12, 6],
            "offset": [58, 76]
        },
        {
            "box": [131, 84, 12, 4],
            "offset": [58, 78]
        },
        {
            "box": [143, 84, 12, 6],
            "offset": [58, 76]
        },
        {
            "box": [0, 90, 15, 6],
            "offset": [56, 75]
        },
        {
            "box": [15, 90, 11, 4],
            "offset": [56, 77]
        },
        {
            "box": [26, 90, 11, 6],
            "offset": [56, 76]
        },
        {
            "box": [37, 90, 8, 6],
            "offset": [56, 76]
        },
        {
            "box": [45, 90, 13, 6],
            "offset": [56, 76]
        },
        {
            "box": [58, 90, 13, 6],
            "offset": [56, 76]
        },
        {
            "box": [71, 90, 13, 6],
            "offset": [56, 76]
        },
        {
            "box": [84, 90, 13, 6],
            "offset": [56, 76]
        },
        {
            "box": [97, 90, 13, 6],
            "offset": [56, 76]
        },
        {
            "box": [110, 90, 13, 6],
            "offset": [56, 76]
        },
        {
            "box": [123, 90, 13, 6],
            "offset": [56, 76]
        },
        {
            "box": [136, 90, 12, 5],
            "offset": [57, 77]
        },
        {
            "box": [148, 90, 13, 6],
            "offset": [56, 76]
        },
        {
            "box": [0, 96, 16, 6],
            "offset": [56, 77]
        },
        {
            "box": [16, 96, 14, 6],
            "offset": [59, 77]
        },
        {
            "box": [30, 96, 8, 6],
            "offset": [60, 81]
        },
        {
            "box": [38, 96, 0, 0],
            "offset": [0, 0]
        },
        {
            "box": [38, 96, 0, 0],
            "offset": [0, 0]
        },
        {
            "box": [38, 96, 0, 0],
            "offset": [0, 0]
        }
    ]
}