{
    "sprites": [
        {
            "box": [0, 0, 27, 24],
            "offset": [51, 47]
        },
        {
            "box": [27, 0, 27, 24],
            "offset": [51, 47]
        },
        {
            "box": [54, 0, 27, 24],
            "offset": [51, 47]
        },
        {
            "box": [81, 0, 27, 24],
            "offset": [51, 47]
        },
        {
            "box": [108, 0, 27, 24],
            "offset": [51, 47]
        },
        {
            "box": [135, 0, 27, 24],
            "offset": [51, 47]
        },
        {
            "box": [162, 0, 27, 24],
            "offset": [51, 47]
        },
        {
            "box": [0, 24, 23, 21],
            "offset": [53, 46]
        },
        {
            "box": [23, 24, 23, 21],
            "offset": [53, 46]
        },
        {
            "box": [46, 24, 23, 21],
            "offset": [53, 46]
        },
        {
            "box": [69, 24, 23, 21],
            "offset": [53, 46]
        },
        {
            "box": [92, 24, 23, 21],
            "offset": [53, 46]
        },
        {
            "box": [115, 24, 23, 21],
            "offset": [53, 46]
        },
        {
            "box": [138, 24, 23, 21],
            "offset": [53, 46]
        },
        {
            "box": [0, 45, 27, 21],
            "offset": [50, 46]
        },
        {
            "box": [27, 45, 27, 21],
            "offset": [50, 46]
        },
        {
            "box": [54, 45, 27, 21],
            "offset": [50, 46]
        },
        {
            "box": [81, 45, 27, 21],
            "offset": [50, 46]
        },
        {
            "box": [108, 45, 27, 21],
            "offset": [50, 46]
        },
        {
            "box": [135, 45, 27, 21],
            "offset": [50, 46]
        },
        {
            "box": [162, 45, 27, 21],
            "offset": [50, 46]
        },
        {
            "box": [0, 66, 27, 24],
            "offset": [51, 47]
        },
        {
            "box": [27, 66, 27, 24],
            "offset": [51, 48]
        },
        {
            "box": [54, 66, 27, 24],
            "offset": [52, 47]
        },
        {
            "box": [81, 66, 27, 24],
            "offset": [52, 47]
        },
        {
            "box": [108, 66, 27, 24],
            "offset": [53, 48]
        },
        {
            "box": [135, 66, 27, 24],
            "offset": [53, 48]
        },
        {
            "box": [162, 66, 27, 24],
            "offset": [53, 48]
        },
        {
            "box": [189, 66, 27, 24],
            "offset": [52, 47]
        },
        {
            "box": [0, 90, 23, 21],
            "offset": [53, 46]
        },
        {
            "box": [23, 90, 23, 21],
            "offset": [53, 46]
        },
        {
            "box": [46, 90, 23, 21],
            "offset": [53, 46]
        },
        {
            "box": [69, 90, 23, 21],
            "offset": [53, 46]
        },
        {
            "box": [92, 90, 23, 21],
            "offset": [51, 46]
        },
        {
            "box": [115, 90, 23, 21],
            "offset": [51, 46]
        },
        {
            "box": [138, 90, 23, 21],
            "offset": [51, 46]
        },
        {
            "box": [161, 90, 23, 21],
            "offset": [53, 46]
        },
        {
            "box": [0, 111, 27, 21],
            "offset": [50, 46]
        },
        {
            "box": [27, 111, 27, 21],
            "offset": [50, 46]
        },
        {
            "box": [54, 111, 27, 21],
            "offset": [50, 46]
        },
        {
            "box": [81, 111, 27, 21],
            "offset": [50, 46]
        },
        {
            "box": [108, 111, 27, 21],
            "offset": [50, 47]
        },
        {
            "box": [135, 111, 27, 21],
            "offset": [50, 47]
        },
        {
            "box": [162, 111, 27, 21],
            "offset": [50, 47]
        },
        {
            "box": [189, 111, 27, 21],
            "offset": [50, 46]
        },
        {
            "box": [0, 132, 27, 24],
            "offset": [51, 46]
        },
        {
            "box": [27, 132, 27, 24],
            "offset": [51, 46]
        },
        {
            "box": [54, 132, 27, 24],
            "offset": [51, 46]
        },
        {
            "box": [81, 132, 27, 24],
            "offset": [51, 47]
        },
        {
            "box": [108, 132, 27, 24],
            "offset": [51, 46]
        },
        {
            "box": [135, 132, 27, 24],
            "offset": [51, 46]
        },
        {
            "box": [162, 132, 27, 24],
            "offset": [51, 46]
        },
        {
            "box": [189, 132, 27, 24],
            "offset": [51, 47]
        },
        {
            "box": [216, 132, 27, 24],
            "offset": [51, 46]
        },
        {
            "box": [0, 156, 23, 21],
            "offset": [53, 46]
        },
        {
            "box": [23, 156, 23, 21],
            "offset": [53, 47]
        },
        {
            "box": [46, 156, 23, 21],
            "offset": [53, 46]
        },
        {
            "box": [69, 156, 23, 21],
            "offset": [53, 46]
        },
        {
            "box": [92, 156, 23, 21],
            "offset": [53, 46]
        },
        {
            "box": [115, 156, 23, 21],
            "offset": [53, 47]
        },
        {
            "box": [138, 156, 23, 21],
            "offset": [53, 46]
        },
        {
            "box": [161, 156, 23, 21],
            "offset": [53, 46]
        },
        {
            "box": [184, 156, 23, 21],
            "offset": [53, 46]
        },
        {
            "box": [0, 177, 27, 21],
            "offset": [50, 46]
        },
        {
            "box": [27, 177, 27, 21],
            "offset": [50, 46]
        },
        {
            "box": [54, 177, 27, 21],
            "offset": [50, 46]
        },
        {
            "box": [81, 177, 27, 21],
            "offset": [50, 47]
        },
        {
            "box": [108, 177, 27, 21],
            "offset": [50, 46]
        },
        {
            "box": [135, 177, 27, 21],
            "offset": [50, 46]
        },
        {
            "box": [162, 177, 27, 21],
            "offset": [50, 46]
        },
        {
            "box": [189, 177, 27, 21],
            "offset": [50, 47]
        },
        {
            "box": [216, 177, 27, 21],
            "offset": [50, 46]
        },
        {
            "box": [0, 198, 27, 24],
            "offset": [51, 47]
        },
        {
            "box": [27, 198, 27, 24],
            "offset": [51, 48]
        },
        {
            "box": [54, 198, 27, 24],
            "offset": [50, 48]
        },
        {
            "box": [81, 198, 27, 24],
            "offset": [52, 47]
        },
        {
            "box": [108, 198, 27, 24],
            "offset": [53, 47]
        },
        {
            "box": [135, 198, 27, 24],
            "offset": [53, 47]
        },
        {
            "box": [0, 222, 23, 21],
            "offset": [53, 46]
        },
        {
            "box": [23, 222, 23, 21],
            "offset": [51, 48]
        },
        {
            "box": [46, 222, 23, 21],
            "offset": [51, 46]
        },
        {
            "box": [69, 222, 23, 21],
            "offset": [50, 46]
        },
        {
            "box": [92, 222, 23, 21],
            "offset": [49, 46]
        },
        {
            "box": [115, 222, 23, 21],
            "offset": [49, 46]
        },
        {
            "box": [0, 243, 27, 21],
            "offset": [50, 46]
        },
        {
            "box": [27, 243, 27, 21],
            "offset": [50, 46]
        },
        {
            "box": [54, 243, 27, 21],
            "offset": [49, 48]
        },
        {
            "box": [81, 243, 27, 21],
            "offset": [52, 47]
        },
        {
            "box": [108, 243, 27, 21],
            "offset": [53, 46]
        },
        {
            "box": [135, 243, 27, 21],
            "offset": [53, 46]
        },
        {
            "box": [0, 264, 27, 24],
            "offset": [50, 47]
        },
        {
            "box": [27, 264, 27, 24],
            "offset": [50, 48]
        },
        {
            "box": [54, 264, 27, 24],
            "offset": [51, 47]
        },
        {
            "box": [81, 264, 27, 24],
            "offset": [50, 47]
        },
        {
            "box": [108, 264, 27, 24],
            "offset": [50, 47]
        },
        {
            "box": [135, 264, 27, 24],
            "offset": [50, 47]
        },
        {
            "box": [162, 264, 27, 24],
            "offset": [50, 47]
        },
        {
            "box": [189, 264, 27, 24],
            "offset": [50, 47]
        },
        {
            "box": [216, 264, 27, 24],
            "offset": [50, 47]
        },
        {
            "box": [243, 264, 27, 24],
            "offset": [50, 47]
        },
        {
            "box": [270, 264, 27, 24],
            "offset": [50, 47]
        },
        {
            "box": [297, 264, 27, 24],
            "offset": [50, 47]
        },
        {
            "box": [324, 264, 27, 24],
            "offset": [50, 47]
        },
        {
            "box": [0, 288, 23, 21],
            "offset": [54, 46]
        },
        {
            "box": [23, 288, 23, 21],
            "offset": [54, 46]
        },
        {
            "box": [46, 288, 23, 21],
            "offset": [54, 46]
        },
        {
            "box": [69, 288, 23, 21],
            "offset": [54, 46]
        },
        {
            "box": [92, 288, 23, 21],
            "offset": [54, 46]
        },
        {
            "box": [115, 288, 23, 18],
            "offset": [54, 46]
        },
        {
            "box": [138, 288, 21, 21],
            "offset": [54, 46]
        },
        {
            "box": [159, 288, 21, 21],
            "offset": [54, 46]
        },
        {
            "box": [180, 288, 21, 17],
            "offset": [54, 46]
        },
        {
            "box": [201, 288, 23, 21],
            "offset": [54, 46]
        },
        {
            "box": [224, 288, 23, 21],
            "offset": [54, 46]
        },
        {
            "box": [247, 288, 23, 21],
            "offset": [54, 46]
        },
        {
            "box": [270, 288, 23, 21],
            "offset": [54, 46]
        },
        {
            "box": [0, 309, 27, 21],
            "offset": [49, 46]
        },
        {
            "box": [27, 309, 27, 21],
            "offset": [49, 46]
        },
        {
            "box": [54, 309, 27, 21],
            "offset": [49, 46]
        },
        {
            "box": [81, 309, 27, 21],
            "offset": [49, 46]
        },
        {
            "box": [108, 309, 27, 19],
            "offset": [49, 46]
        },
        {
            "box": [135, 309, 27, 19],
            "offset": [49, 46]
        },
        {
            "box": [162, 309, 27, 19],
            "offset": [49, 46]
        },
        {
            "box": [189, 309, 27, 21],
            "offset": [49, 46]
        },
        {
            "box": [216, 309, 27, 19],
            "offset": [49, 46]
        },
        {
            "box": [243, 309, 27, 20],
            "offset": [49, 46]
        },
        {
            "box": [270, 309, 27, 21],
            "offset": [49, 46]
        },
        {
            "box": [297, 309, 27, 21],
            "offset": [49, 46]
        },
        {
            "box": [324, 309, 27, 21],
            "offset": [49, 46]
        },
        {
            "box": [0, 330, 27, 21],
            "offset": [50, 46]
        },
        {
            "box": [27, 330, 27, 21],
            "offset": [52, 47]
        },
        {
            "box": [54, 330, 27, 22],
            "offset": [52, 54]
        },
        {
            "box": [81, 330, 27, 19],
            "offset": [52, 59]
        },
        {
            "box": [108, 330, 27, 20],
            "offset": [52, 65]
        },
        {
            "box": [135, 330, 27, 22],
            "offset": [54, 74]
        }
    ]
}