{
    "sprites": [
        {
            "box": [0, 0, 26, 25],
            "offset": [52, 47]
        },
        {
            "box": [26, 0, 26, 25],
            "offset": [52, 47]
        },
        {
            "box": [52, 0, 26, 25],
            "offset": [52, 47]
        },
        {
            "box": [78, 0, 26, 25],
            "offset": [52, 47]
        },
        {
            "box": [104, 0, 26, 25],
            "offset": [52, 47]
        },
        {
            "box": [130, 0, 26, 25],
            "offset": [52, 47]
        },
        {
            "box": [156, 0, 26, 25],
            "offset": [52, 47]
        },
        {
            "box": [0, 25, 25, 22],
            "offset": [52, 46]
        },
        {
            "box": [25, 25, 25, 22],
            "offset": [52, 46]
        },
        {
            "box": [50, 25, 25, 22],
            "offset": [52, 46]
        },
        {
            "box": [75, 25, 25, 22],
            "offset": [52, 46]
        },
        {
            "box": [100, 25, 25, 21],
            "offset": [52, 46]
        },
        {
            "box": [125, 25, 22, 20],
            "offset": [52, 46]
        },
        {
            "box": [147, 25, 25, 22],
            "offset": [52, 46]
        },
        {
            "box": [0, 47, 26, 24],
            "offset": [52, 46]
        },
        {
            "box": [26, 47, 26, 24],
            "offset": [52, 46]
        },
        {
            "box": [52, 47, 26, 24],
            "offset": [52, 46]
        },
        {
            "box": [78, 47, 26, 24],
            "offset": [52, 46]
        },
        {
            "box": [104, 47, 24, 21],
            "offset": [52, 46]
        },
        {
            "box": [128, 47, 24, 20],
            "offset": [52, 46]
        },
        {
            "box": [152, 47, 26, 24],
            "offset": [52, 46]
        },
        {
            "box": [0, 71, 26, 25],
            "offset": [52, 48]
        },
        {
            "box": [26, 71, 26, 25],
            "offset": [51, 48]
        },
        {
            "box": [52, 71, 26, 25],
            "offset": [53, 47]
        },
        {
            "box": [78, 71, 26, 25],
            "offset": [53, 47]
        },
        {
            "box": [104, 71, 26, 25],
            "offset": [54, 48]
        },
        {
            "box": [130, 71, 26, 25],
            "offset": [54, 48]
        },
        {
            "box": [156, 71, 26, 25],
            "offset": [54, 48]
        },
        {
            "box": [182, 71, 26, 25],
            "offset": [53, 47]
        },
        {
            "box": [0, 96, 25, 22],
            "offset": [52, 46]
        },
        {
            "box": [25, 96, 25, 22],
            "offset": [52, 46]
        },
        {
            "box": [50, 96, 25, 21],
            "offset": [52, 46]
        },
        {
            "box": [75, 96, 25, 21],
            "offset": [52, 46]
        },
        {
            "box": [100, 96, 25, 21],
            "offset": [50, 46]
        },
        {
            "box": [125, 96, 25, 21],
            "offset": [50, 46]
        },
        {
            "box": [150, 96, 25, 21],
            "offset": [50, 46]
        },
        {
            "box": [175, 96, 25, 21],
            "offset": [52, 46]
        },
        {
            "box": [0, 118, 26, 24],
            "offset": [52, 46]
        },
        {
            "box": [26, 118, 26, 24],
            "offset": [52, 46]
        },
        {
            "box": [52, 118, 26, 24],
            "offset": [52, 46]
        },
        {
            "box": [78, 118, 26, 24],
            "offset": [52, 46]
        },
        {
            "box": [104, 118, 26, 24],
            "offset": [52, 47]
        },
        {
            "box": [130, 118, 26, 24],
            "offset": [52, 47]
        },
        {
            "box": [156, 118, 26, 24],
            "offset": [52, 47]
        },
        {
            "box": [182, 118, 26, 24],
            "offset": [52, 46]
        },
        {
            "box": [0, 142, 26, 25],
            "offset": [52, 47]
        },
        {
            "box": [26, 142, 26, 25],
            "offset": [52, 47]
        },
        {
            "box": [52, 142, 26, 25],
            "offset": [52, 47]
        },
        {
            "box": [78, 142, 26, 25],
            "offset": [52, 48]
        },
        {
            "box": [104, 142, 26, 25],
            "offset": [52, 47]
        },
        {
            "box": [130, 142, 26, 25],
            "offset": [52, 47]
        },
        {
            "box": [156, 142, 26, 25],
            "offset": [52, 47]
        },
        {
            "box": [182, 142, 26, 25],
            "offset": [52, 48]
        },
        {
            "box": [208, 142, 26, 25],
            "offset": [52, 47]
        },
        {
            "box": [0, 167, 25, 22],
            "offset": [52, 46]
        },
        {
            "box": [25, 167, 25, 22],
            "offset": [52, 47]
        },
        {
            "box": [50, 167, 25, 22],
            "offset": [52, 47]
        },
        {
            "box": [75, 167, 25, 22],
            "offset": [52, 46]
        },
        {
            "box": [100, 167, 25, 22],
            "offset": [52, 46]
        },
        {
            "box": [125, 167, 25, 22],
            "offset": [52, 47]
        },
        {
            "box": [150, 167, 25, 22],
            "offset": [52, 47]
        },
        {
            "box": [175, 167, 25, 22],
            "offset": [52, 46]
        },
        {
            "box": [200, 167, 25, 22],
            "offset": [52, 46]
        },
        {
            "box": [0, 189, 26, 24],
            "offset": [52, 46]
        },
        {
            "box": [26, 189, 26, 24],
            "offset": [52, 46]
        },
        {
            "box": [52, 189, 26, 24],
            "offset": [52, 46]
        },
        {
            "box": [78, 189, 26, 24],
            "offset": [52, 47]
        },
        {
            "box": [104, 189, 26, 24],
            "offset": [52, 46]
        },
        {
            "box": [130, 189, 26, 24],
            "offset": [52, 46]
        },
        {
            "box": [156, 189, 26, 24],
            "offset": [52, 46]
        },
        {
            "box": [182, 189, 26, 24],
            "offset": [52, 47]
        },
        {
            "box": [208, 189, 26, 24],
            "offset": [52, 46]
        },
        {
            "box": [0, 213, 26, 25],
            "offset": [52, 47]
        },
        {
            "box": [26, 213, 26, 25],
            "offset": [51, 47]
        },
        {
            "box": [52, 213, 26, 25],
            "offset": [50, 47]
        },
        {
            "box": [78, 213, 26, 25],
            "offset": [53, 46]
        },
        {
            "box": [104, 213, 26, 25],
            "offset": [54, 46]
        },
        {
            "box": [130, 213, 26, 25],
            "offset": [54, 46]
        },
        {
            "box": [0, 238, 25, 22],
            "offset": [52, 46]
        },
        {
            "box": [25, 238, 25, 22],
            "offset": [51, 48]
        },
        {
            "box": [50, 238, 25, 22],
            "offset": [51, 47]
        },
        {
            "box": [75, 238, 25, 22],
            "offset": [50, 46]
        },
        {
            "box": [100, 238, 25, 22],
            "offset": [50, 46]
        },
        {
            "box": [125, 238, 25, 22],
            "offset": [50, 46]
        },
        {
            "box": [0, 260, 26, 24],
            "offset": [52, 46]
        },
        {
            "box": [26, 260, 26, 24],
            "offset": [52, 48]
        },
        {
            "box": [52, 260, 26, 24],
            "offset": [51, 47]
        },
        {
            "box": [78, 260, 26, 24],
            "offset": [53, 46]
        },
        {
            "box": [104, 260, 26, 24],
            "offset": [54, 46]
        },
        {
            "box": [130, 260, 26, 23],
            "offset": [54, 46]
        },
        {
            "box": [0, 284, 26, 25],
            "offset": [52, 47]
        },
        {
            "box": [26, 284, 26, 25],
            "offset": [51, 47]
        },
        {
            "box": [52, 284, 26, 25],
            "offset": [52, 47]
        },
        {
            "box": [78, 284, 26, 25],
            "offset": [51, 47]
        },
        {
            "box": [104, 284, 26, 25],
            "offset": [51, 47]
        },
        {
            "box": [130, 284, 26, 25],
            "offset": [51, 47]
        },
        {
            "box": [156, 284, 22, 25],
            "offset": [51, 47]
        },
        {
            "box": [178, 284, 22, 25],
            "offset": [51, 47]
        },
        {
            "box": [200, 284, 26, 25],
            "offset": [51, 47]
        },
        {
            "box": [226, 284, 26, 25],
            "offset": [51, 47]
        },
        {
            "box": [252, 284, 26, 25],
            "offset": [51, 47]
        },
        {
            "box": [278, 284, 26, 25],
            "offset": [51, 47]
        },
        {
            "box": [304, 284, 26, 25],
            "offset": [51, 47]
        },
        {
            "box": [0, 309, 25, 22],
            "offset": [53, 46]
        },
        {
            "box": [25, 309, 25, 22],
            "offset": [53, 46]
        },
        {
            "box": [50, 309, 25, 21],
            "offset": [53, 46]
        },
        {
            "box": [75, 309, 25, 21],
            "offset": [53, 48]
        },
        {
            "box": [100, 309, 25, 20],
            "offset": [53, 46]
        },
        {
            "box": [125, 309, 25, 21],
            "offset": [53, 46]
        },
        {
            "box": [150, 309, 22, 15],
            "offset": [53, 46]
        },
        {
            "box": [172, 309, 22, 14],
            "offset": [53, 46]
        },
        {
            "box": [194, 309, 22, 17],
            "offset": [53, 46]
        },
        {
            "box": [216, 309, 25, 20],
            "offset": [53, 46]
        },
        {
            "box": [241, 309, 25, 21],
            "offset": [53, 46]
        },
        {
            "box": [266, 309, 25, 22],
            "offset": [53, 46]
        },
        {
            "box": [291, 309, 25, 21],
            "offset": [53, 46]
        },
        {
            "box": [0, 331, 26, 24],
            "offset": [52, 46]
        },
        {
            "box": [26, 331, 26, 24],
            "offset": [51, 46]
        },
        {
            "box": [52, 331, 26, 24],
            "offset": [51, 46]
        },
        {
            "box": [78, 331, 26, 24],
            "offset": [51, 46]
        },
        {
            "box": [104, 331, 26, 24],
            "offset": [51, 46]
        },
        {
            "box": [130, 331, 26, 24],
            "offset": [51, 46]
        },
        {
            "box": [156, 331, 26, 24],
            "offset": [51, 46]
        },
        {
            "box": [182, 331, 26, 24],
            "offset": [51, 46]
        },
        {
            "box": [208, 331, 26, 24],
            "offset": [51, 46]
        },
        {
            "box": [234, 331, 26, 24],
            "offset": [51, 46]
        },
        {
            "box": [260, 331, 26, 24],
            "offset": [51, 46]
        },
        {
            "box": [286, 331, 26, 24],
            "offset": [51, 46]
        },
        {
            "box": [312, 331, 26, 24],
            "offset": [51, 46]
        },
        {
            "box": [0, 355, 26, 24],
            "offset": [52, 47]
        },
        {
            "box": [26, 355, 26, 24],
            "offset": [53, 47]
        },
        {
            "box": [52, 355, 26, 24],
            "offset": [53, 54]
        },
        {
            "box": [78, 355, 26, 22],
            "offset": [53, 58]
        },
        {
            "box": [104, 355, 26, 22],
            "offset": [53, 64]
        },
        {
            "box": [130, 355, 26, 25],
            "offset": [54, 70]
        }
    ]
}