{
    "sprites": [
        {
            "box": [0, 0, 20, 32],
            "offset": [54, 47]
        },
        {
            "box": [20, 0, 20, 32],
            "offset": [54, 47]
        },
        {
            "box": [40, 0, 20, 32],
            "offset": [54, 47]
        },
        {
            "box": [60, 0, 20, 32],
            "offset": [54, 47]
        },
        {
            "box": [80, 0, 20, 32],
            "offset": [54, 47]
        },
        {
            "box": [100, 0, 20, 32],
            "offset": [54, 47]
        },
        {
            "box": [120, 0, 20, 32],
            "offset": [54, 47]
        },
        {
            "box": [0, 32, 22, 31],
            "offset": [55, 46]
        },
        {
            "box": [22, 32, 22, 31],
            "offset": [55, 46]
        },
        {
            "box": [44, 32, 22, 31],
            "offset": [55, 46]
        },
        {
            "box": [66, 32, 22, 26],
            "offset": [55, 46]
        },
        {
            "box": [88, 32, 21, 31],
            "offset": [55, 46]
        },
        {
            "box": [109, 32, 22, 31],
            "offset": [55, 46]
        },
        {
            "box": [131, 32, 22, 26],
            "offset": [55, 46]
        },
        {
            "box": [0, 63, 20, 19],
            "offset": [54, 46]
        },
        {
            "box": [20, 63, 20, 19],
            "offset": [54, 46]
        },
        {
            "box": [40, 63, 20, 19],
            "offset": [54, 46]
        },
        {
            "box": [60, 63, 20, 19],
            "offset": [54, 46]
        },
        {
            "box": [80, 63, 20, 19],
            "offset": [54, 46]
        },
        {
            "box": [100, 63, 20, 19],
            "offset": [54, 46]
        },
        {
            "box": [120, 63, 20, 19],
            "offset": [54, 46]
        },
        {
            "box": [0, 82, 20, 32],
            "offset": [54, 48]
        },
        {
            "box": [20, 82, 20, 32],
            "offset": [53, 48]
        },
        {
            "box": [40, 82, 20, 32],
            "offset": [55, 47]
        },
        {
            "box": [60, 82, 20, 32],
            "offset": [55, 47]
        },
        {
            "box": [80, 82, 20, 32],
            "offset": [56, 48]
        },
        {
            "box": [100, 82, 20, 32],
            "offset": [56, 48]
        },
        {
            "box": [120, 82, 20, 32],
            "offset": [56, 48]
        },
        {
            "box": [140, 82, 20, 32],
            "offset": [55, 47]
        },
        {
            "box": [0, 114, 22, 31],
            "offset": [55, 46]
        },
        {
            "box": [22, 114, 22, 31],
            "offset": [55, 46]
        },
        {
            "box": [44, 114, 22, 25],
            "offset": [55, 46]
        },
        {
            "box": [66, 114, 22, 23],
            "offset": [55, 46]
        },
        {
            "box": [88, 114, 22, 31],
            "offset": [53, 46]
        },
        {
            "box": [110, 114, 22, 31],
            "offset": [53, 46]
        },
        {
            "box": [132, 114, 22, 31],
            "offset": [53, 46]
        },
        {
            "box": [154, 114, 22, 23],
            "offset": [55, 46]
        },
        {
            "box": [0, 145, 20, 19],
            "offset": [54, 46]
        },
        {
            "box": [20, 145, 20, 19],
            "offset": [54, 46]
        },
        {
            "box": [40, 145, 20, 19],
            "offset": [54, 46]
        },
        {
            "box": [60, 145, 20, 19],
            "offset": [54, 46]
        },
        {
            "box": [80, 145, 20, 19],
            "offset": [54, 47]
        },
        {
            "box": [100, 145, 20, 19],
            "offset": [54, 47]
        },
        {
            "box": [120, 145, 20, 19],
            "offset": [54, 47]
        },
        {
            "box": [140, 145, 20, 19],
            "offset": [54, 46]
        },
        {
            "box": [0, 164, 20, 32],
            "offset": [54, 47]
        },
        {
            "box": [20, 164, 20, 32],
            "offset": [54, 47]
        },
        {
            "box": [40, 164, 20, 32],
            "offset": [54, 47]
        },
        {
            "box": [60, 164, 20, 32],
            "offset": [54, 48]
        },
        {
            "box": [80, 164, 20, 32],
            "offset": [54, 47]
        },
        {
            "box": [100, 164, 20, 32],
            "offset": [54, 47]
        },
        {
            "box": [120, 164, 20, 32],
            "offset": [54, 47]
        },
        {
            "box": [140, 164, 20, 32],
            "offset": [54, 48]
        },
        {
            "box": [160, 164, 20, 32],
            "offset": [54, 47]
        },
        {
            "box": [0, 196, 22, 31],
            "offset": [55, 46]
        },
        {
            "box": [22, 196, 22, 31],
            "offset": [55, 47]
        },
        {
            "box": [44, 196, 22, 31],
            "offset": [55, 47]
        },
        {
            "box": [66, 196, 22, 31],
            "offset": [55, 46]
        },
        {
            "box": [88, 196, 22, 28],
            "offset": [55, 46]
        },
        {
            "box": [110, 196, 22, 28],
            "offset": [55, 47]
        },
        {
            "box": [132, 196, 22, 28],
            "offset": [55, 47]
        },
        {
            "box": [154, 196, 22, 31],
            "offset": [55, 46]
        },
        {
            "box": [176, 196, 22, 31],
            "offset": [55, 46]
        },
        {
            "box": [0, 227, 20, 19],
            "offset": [54, 46]
        },
        {
            "box": [20, 227, 20, 19],
            "offset": [54, 46]
        },
        {
            "box": [40, 227, 20, 19],
            "offset": [54, 46]
        },
        {
            "box": [60, 227, 20, 19],
            "offset": [54, 47]
        },
        {
            "box": [80, 227, 20, 19],
            "offset": [54, 46]
        },
        {
            "box": [100, 227, 20, 19],
            "offset": [54, 46]
        },
        {
            "box": [120, 227, 20, 19],
            "offset": [54, 46]
        },
        {
            "box": [140, 227, 20, 19],
            "offset": [54, 47]
        },
        {
            "box": [160, 227, 20, 19],
            "offset": [54, 46]
        },
        {
            "box": [0, 246, 20, 32],
            "offset": [54, 47]
        },
        {
            "box": [20, 246, 20, 32],
            "offset": [53, 47]
        },
        {
            "box": [40, 246, 20, 32],
            "offset": [52, 47]
        },
        {
            "box": [60, 246, 20, 32],
            "offset": [55, 46]
        },
        {
            "box": [80, 246, 20, 32],
            "offset": [56, 46]
        },
        {
            "box": [100, 246, 20, 32],
            "offset": [56, 46]
        },
        {
            "box": [0, 278, 22, 31],
            "offset": [55, 46]
        },
        {
            "box": [22, 278, 22, 29],
            "offset": [54, 48]
        },
        {
            "box": [44, 278, 22, 29],
            "offset": [54, 47]
        },
        {
            "box": [66, 278, 22, 28],
            "offset": [53, 46]
        },
        {
            "box": [88, 278, 22, 28],
            "offset": [53, 46]
        },
        {
            "box": [110, 278, 22, 28],
            "offset": [53, 46]
        },
        {
            "box": [0, 309, 20, 19],
            "offset": [54, 46]
        },
        {
            "box": [20, 309, 20, 19],
            "offset": [54, 48]
        },
        {
            "box": [40, 309, 20, 19],
            "offset": [53, 47]
        },
        {
            "box": [60, 309, 20, 19],
            "offset": [55, 46]
        },
        {
            "box": [80, 309, 20, 19],
            "offset": [56, 46]
        },
        {
            "box": [100, 309, 20, 19],
            "offset": [56, 46]
        },
        {
            "box": [0, 328, 20, 32],
            "offset": [54, 47]
        },
        {
            "box": [20, 328, 20, 32],
            "offset": [53, 47]
        },
        {
            "box": [40, 328, 20, 32],
            "offset": [54, 47]
        },
        {
            "box": [60, 328, 20, 32],
            "offset": [53, 47]
        },
        {
            "box": [80, 328, 20, 32],
            "offset": [53, 47]
        },
        {
            "box": [100, 328, 20, 32],
            "offset": [53, 47]
        },
        {
            "box": [120, 328, 20, 32],
            "offset": [53, 47]
        },
        {
            "box": [140, 328, 20, 32],
            "offset": [53, 47]
        },
        {
            "box": [160, 328, 20, 32],
            "offset": [53, 47]
        },
        {
            "box": [180, 328, 20, 32],
            "offset": [53, 47]
        },
        {
            "box": [200, 328, 20, 32],
            "offset": [53, 47]
        },
        {
            "box": [220, 328, 20, 32],
            "offset": [53, 47]
        },
        {
            "box": [240, 328, 20, 32],
            "offset": [53, 47]
        },
        {
            "box": [0, 360, 22, 31],
            "offset": [56, 46]
        },
        {
            "box": [22, 360, 22, 31],
            "offset": [56, 46]
        },
        {
            "box": [44, 360, 22, 25],
            "offset": [56, 46]
        },
        {
            "box": [66, 360, 22, 23],
            "offset": [56, 48]
        },
        {
            "box": [88, 360, 22, 31],
            "offset": [56, 46]
        },
        {
            "box": [110, 360, 22, 31],
            "offset": [56, 46]
        },
        {
            "box": [132, 360, 22, 31],
            "offset": [56, 46]
        },
        {
            "box": [154, 360, 22, 31],
            "offset": [56, 46]
        },
        {
            "box": [176, 360, 22, 31],
            "offset": [56, 46]
        },
        {
            "box": [198, 360, 22, 31],
            "offset": [56, 46]
        },
        {
            "box": [220, 360, 22, 24],
            "offset": [56, 46]
        },
        {
            "box": [242, 360, 22, 31],
            "offset": [56, 46]
        },
        {
            "box": [264, 360, 22, 24],
            "offset": [56, 46]
        },
        {
            "box": [0, 391, 20, 19],
            "offset": [54, 46]
        },
        {
            "box": [20, 391, 20, 19],
            "offset": [53, 46]
        },
        {
            "box": [40, 391, 20, 19],
            "offset": [53, 46]
        },
        {
            "box": [60, 391, 20, 19],
            "offset": [53, 46]
        },
        {
            "box": [80, 391, 20, 19],
            "offset": [53, 46]
        },
        {
            "box": [100, 391, 20, 19],
            "offset": [53, 46]
        },
        {
            "box": [120, 391, 20, 19],
            "offset": [53, 46]
        },
        {
            "box": [140, 391, 20, 19],
            "offset": [53, 46]
        },
        {
            "box": [160, 391, 20, 19],
            "offset": [53, 46]
        },
        {
            "box": [180, 391, 20, 19],
            "offset": [53, 46]
        },
        {
            "box": [200, 391, 20, 19],
            "offset": [53, 46]
        },
        {
            "box": [220, 391, 20, 19],
            "offset": [53, 46]
        },
        {
            "box": [240, 391, 20, 19],
            "offset": [53, 46]
        },
        {
            "box": [0, 410, 20, 19],
            "offset": [54, 47]
        },
        {
            "box": [20, 410, 20, 20],
            "offset": [55, 47]
        },
        {
            "box": [40, 410, 20, 20],
            "offset": [55, 54]
        },
        {
            "box": [60, 410, 20, 20],
            "offset": [55, 59]
        },
        {
            "box": [80, 410, 20, 23],
            "offset": [56, 64]
        },
        {
            "box": [100, 410, 20, 32],
            "offset": [56, 64]
        }
    ]
}