{
    "sprites": [
        {
            "box": [0, 0, 0, 0],
            "offset": [0, 0]
        },
        {
            "box": [0, 0, 0, 0],
            "offset": [0, 0]
        },
        {
            "box": [0, 0, 0, 0],
            "offset": [0, 0]
        },
        {
            "box": [0, 0, 0, 0],
            "offset": [0, 0]
        },
        {
            "box": [0, 0, 0, 0],
            "offset": [0, 0]
        },
        {
            "box": [0, 0, 0, 0],
            "offset": [0, 0]
        },
        {
            "box": [0, 0, 0, 0],
            "offset": [0, 0]
        },
        {
            "box": [0, 0, 0, 0],
            "offset": [0, 0]
        },
        {
            "box": [0, 0, 0, 0],
            "offset": [0, 0]
        },
        {
            "box": [0, 0, 0, 0],
            "offset": [0, 0]
        },
        {
            "box": [0, 0, 0, 0],
            "offset": [0, 0]
        },
        {
            "box": [0, 0, 0, 0],
            "offset": [0, 0]
        },
        {
            "box": [0, 0, 0, 0],
            "offset": [0, 0]
        },
        {
            "box": [0, 0, 0, 0],
            "offset": [0, 0]
        },
        {
            "box": [0, 0, 27, 48],
            "offset": [51, 47]
        },
        {
            "box": [27, 0, 0, 0],
            "offset": [0, 0]
        },
        {
            "box": [27, 0, 0, 0],
            "offset": [0, 0]
        },
        {
            "box": [27, 0, 0, 0],
            "offset": [0, 0]
        },
        {
            "box": [27, 0, 0, 0],
            "offset": [0, 0]
        },
        {
            "box": [27, 0, 0, 0],
            "offset": [0, 0]
        },
        {
            "box": [27, 0, 0, 0],
            "offset": [0, 0]
        },
        {
            "box": [0, 48, 0, 0],
            "offset": [0, 0]
        },
        {
            "box": [0, 48, 0, 0],
            "offset": [0, 0]
        },
        {
            "box": [0, 48, 0, 0],
            "offset": [0, 0]
        },
        {
            "box": [0, 48, 0, 0],
            "offset": [0, 0]
        },
        {
            "box": [0, 48, 0, 0],
            "offset": [0, 0]
        },
        {
            "box": [0, 48, 0, 0],
            "offset": [0, 0]
        },
        {
            "box": [0, 48, 0, 0],
            "offset": [0, 0]
        },
        {
            "box": [0, 48, 0, 0],
            "offset": [0, 0]
        },
        {
            "box": [0, 48, 0, 0],
            "offset": [0, 0]
        },
        {
            "box": [0, 48, 0, 0],
            "offset": [0, 0]
        },
        {
            "box": [0, 48, 0, 0],
            "offset": [0, 0]
        },
        {
            "box": [0, 48, 0, 0],
            "offset": [0, 0]
        },
        {
            "box": [0, 48, 0, 0],
            "offset": [0, 0]
        },
        {
            "box": [0, 48, 0, 0],
            "offset": [0, 0]
        },
        {
            "box": [0, 48, 0, 0],
            "offset": [0, 0]
        },
        {
            "box": [0, 48, 0, 0],
            "offset": [0, 0]
        },
        {
            "box": [0, 48, 0, 0],
            "offset": [0, 0]
        },
        {
            "box": [0, 48, 0, 0],
            "offset": [0, 0]
        },
        {
            "box": [0, 48, 0, 0],
            "offset": [0, 0]
        },
        {
            "box": [0, 48, 0, 0],
            "offset": [0, 0]
        },
        {
            "box": [0, 48, 0, 0],
            "offset": [0, 0]
        },
        {
            "box": [0, 48, 0, 0],
            "offset": [0, 0]
        },
        {
            "box": [0, 48, 0, 0],
            "offset": [0, 0]
        },
        {
            "box": [0, 48, 0, 0],
            "offset": [0, 0]
        },
        {
            "box": [0, 48, 0, 0],
            "offset": [0, 0]
        },
        {
            "box": [0, 48, 0, 0],
            "offset": [0, 0]
        },
        {
            "box": [0, 48, 0, 0],
            "offset": [0, 0]
        },
        {
            "box": [0, 48, 0, 0],
            "offset": [0, 0]
        },
        {
            "box": [0, 48, 0, 0],
            "offset": [0, 0]
        },
        {
            "box": [0, 48, 0, 0],
            "offset": [0, 0]
        },
        {
            "box": [0, 48, 0, 0],
            "offset": [0, 0]
        },
        {
            "box": [0, 48, 0, 0],
            "offset": [0, 0]
        },
        {
            "box": [0, 48, 0, 0],
            "offset": [0, 0]
        },
        {
            "box": [0, 48, 0, 0],
            "offset": [0, 0]
        },
        {
            "box": [0, 48, 0, 0],
            "offset": [0, 0]
        },
        {
            "box": [0, 48, 0, 0],
            "offset": [0, 0]
        },
        {
            "box": [0, 48, 0, 0],
            "offset": [0, 0]
        },
        {
            "box": [0, 48, 0, 0],
            "offset": [0, 0]
        },
        {
            "box": [0, 48, 0, 0],
            "offset": [0, 0]
        },
        {
            "box": [0, 48, 0, 0],
            "offset": [0, 0]
        },
        {
            "box": [0, 48, 0, 0],
            "offset": [0, 0]
        },
        {
            "box": [0, 48, 0, 0],
            "offset": [0, 0]
        },
        {
            "box": [0, 48, 0, 0],
            "offset": [0, 0]
        },
        {
            "box": [0, 48, 0, 0],
            "offset": [0, 0]
        },
        {
            "box": [0, 48, 0, 0],
            "offset": [0, 0]
        },
        {
            "box": [0, 48, 0, 0],
            "offset": [0, 0]
        },
        {
            "box": [0, 48, 0, 0],
            "offset": [0, 0]
        },
        {
            "box": [0, 48, 0, 0],
            "offset": [0, 0]
        },
        {
            "box": [0, 48, 0, 0],
            "offset": [0, 0]
        },
        {
            "box": [0, 48, 0, 0],
            "offset": [0, 0]
        },
        {
            "box": [0, 48, 0, 0],
            "offset": [0, 0]
        },
        {
            "box": [0, 48, 0, 0],
            "offset": [0, 0]
        },
        {
            "box": [0, 48, 0, 0],
            "offset": [0, 0]
        },
        {
            "box": [0, 48, 0, 0],
            "offset": [0, 0]
        },
        {
            "box": [0, 48, 0, 0],
            "offset": [0, 0]
        },
        {
            "box": [0, 48, 0, 0],
            "offset": [0, 0]
        },
        {
            "box": [0, 48, 0, 0],
            "offset": [0, 0]
        },
        {
            "box": [0, 48, 0, 0],
            "offset": [0, 0]
        },
        {
            "box": [0, 48, 0, 0],
            "offset": [0, 0]
        },
        {
            "box": [0, 48, 0, 0],
            "offset": [0, 0]
        },
        {
            "box": [0, 48, 0, 0],
            "offset": [0, 0]
        },
        {
            "box": [0, 48, 0, 0],
            "offset": [0, 0]
        },
        {
            "box": [0, 48, 0, 0],
            "offset": [0, 0]
        },
        {
            "box": [0, 48, 0, 0],
            "offset": [0, 0]
        },
        {
            "box": [0, 48, 0, 0],
            "offset": [0, 0]
        },
        {
            "box": [0, 48, 0, 0],
            "offset": [0, 0]
        },
        {
            "box": [0, 48, 0, 0],
            "offset": [0, 0]
        },
        {
            "box": [0, 48, 0, 0],
            "offset": [0, 0]
        },
        {
            "box": [0, 48, 0, 0],
            "offset": [0, 0]
        },
        {
            "box": [0, 48, 0, 0],
            "offset": [0, 0]
        },
        {
            "box": [0, 48, 0, 0],
            "offset": [0, 0]
        },
        {
            "box": [0, 48, 0, 0],
            "offset": [0, 0]
        },
        {
            "box": [0, 48, 0, 0],
            "offset": [0, 0]
        },
        {
            "box": [0, 48, 0, 0],
            "offset": [0, 0]
        },
        {
            "box": [0, 48, 0, 0],
            "offset": [0, 0]
        },
        {
            "box": [0, 48, 0, 0],
            "offset": [0, 0]
        },
        {
            "box": [0, 48, 0, 0],
            "offset": [0, 0]
        },
        {
            "box": [0, 48, 0, 0],
            "offset": [0, 0]
        },
        {
            "box": [0, 48, 0, 0],
            "offset": [0, 0]
        },
        {
            "box": [0, 48, 0, 0],
            "offset": [0, 0]
        },
        {
            "box": [0, 48, 0, 0],
            "offset": [0, 0]
        },
        {
            "box": [0, 48, 0, 0],
            "offset": [0, 0]
        },
        {
            "box": [0, 48, 0, 0],
            "offset": [0, 0]
        },
        {
            "box": [0, 48, 0, 0],
            "offset": [0, 0]
        },
        {
            "box": [0, 48, 0, 0],
            "offset": [0, 0]
        },
        {
            "box": [0, 48, 0, 0],
            "offset": [0, 0]
        },
        {
            "box": [0, 48, 0, 0],
            "offset": [0, 0]
        },
        {
            "box": [0, 48, 0, 0],
            "offset": [0, 0]
        },
        {
            "box": [0, 48, 0, 0],
            "offset": [0, 0]
        },
        {
            "box": [0, 48, 0, 0],
            "offset": [0, 0]
        },
        {
            "box": [0, 48, 0, 0],
            "offset": [0, 0]
        },
        {
            "box": [0, 48, 0, 0],
            "offset": [0, 0]
        },
        {
            "box": [0, 48, 0, 0],
            "offset": [0, 0]
        },
        {
            "box": [0, 48, 0, 0],
            "offset": [0, 0]
        },
        {
            "box": [0, 48, 0, 0],
            "offset": [0, 0]
        },
        {
            "box": [0, 48, 0, 0],
            "offset": [0, 0]
        },
        {
            "box": [0, 48, 0, 0],
            "offset": [0, 0]
        },
        {
            "box": [0, 48, 0, 0],
            "offset": [0, 0]
        },
        {
            "box": [0, 48, 0, 0],
            "offset": [0, 0]
        },
        {
            "box": [0, 48, 0, 0],
            "offset": [0, 0]
        },
        {
            "box": [0, 48, 0, 0],
            "offset": [0, 0]
        },
        {
            "box": [0, 48, 0, 0],
            "offset": [0, 0]
        },
        {
            "box": [0, 48, 0, 0],
            "offset": [0, 0]
        },
        {
            "box": [0, 48, 0, 0],
            "offset": [0, 0]
        },
        {
            "box": [0, 48, 0, 0],
            "offset": [0, 0]
        },
        {
            "box": [0, 48, 0, 0],
            "offset": [0, 0]
        },
        {
            "box": [0, 48, 0, 0],
            "offset": [0, 0]
        },
        {
            "box": [0, 48, 0, 0],
            "offset": [0, 0]
        },
        {
            "box": [0, 48, 0, 0],
            "offset": [0, 0]
        },
        {
            "box": [0, 48, 0, 0],
            "offset": [0, 0]
        },
        {
            "box": [0, 48, 0, 0],
            "offset": [0, 0]
        },
        {
            "box": [0, 48, 0, 0],
            "offset": [0, 0]
        },
        {
            "box": [0, 48, 0, 0],
            "offset": [0, 0]
        },
        {
            "box": [0, 48, 0, 0],
            "offset": [0, 0]
        }
    ]
}