{
    "sprites": [
        {
            "box": [0, 0, 30, 14],
            "offset": [49, 65]
        },
        {
            "box": [30, 0, 28, 14],
            "offset": [50, 65]
        },
        {
            "box": [58, 0, 28, 14],
            "offset": [50, 65]
        },
        {
            "box": [86, 0, 32, 14],
            "offset": [48, 65]
        },
        {
            "box": [118, 0, 40, 14],
            "offset": [44, 65]
        },
        {
            "box": [158, 0, 40, 16],
            "offset": [44, 63]
        },
        {
            "box": [198, 0, 32, 14],
            "offset": [48, 65]
        },
        {
            "box": [0, 16, 19, 14],
            "offset": [56, 65]
        },
        {
            "box": [19, 16, 20, 15],
            "offset": [56, 65]
        },
        {
            "box": [39, 16, 21, 15],
            "offset": [54, 65]
        },
        {
            "box": [60, 16, 20, 14],
            "offset": [56, 65]
        },
        {
            "box": [80, 16, 23, 14],
            "offset": [54, 65]
        },
        {
            "box": [103, 16, 24, 16],
            "offset": [53, 63]
        },
        {
            "box": [127, 16, 20, 14],
            "offset": [56, 65]
        },
        {
            "box": [0, 32, 30, 15],
            "offset": [49, 64]
        },
        {
            "box": [30, 32, 30, 15],
            "offset": [49, 64]
        },
        {
            "box": [60, 32, 28, 15],
            "offset": [50, 64]
        },
        {
            "box": [88, 32, 32, 15],
            "offset": [48, 64]
        },
        {
            "box": [120, 32, 40, 15],
            "offset": [44, 64]
        },
        {
            "box": [160, 32, 38, 17],
            "offset": [45, 62]
        },
        {
            "box": [198, 32, 30, 15],
            "offset": [49, 64]
        },
        {
            "box": [0, 49, 30, 14],
            "offset": [49, 65]
        },
        {
            "box": [30, 49, 25, 15],
            "offset": [52, 66]
        },
        {
            "box": [55, 49, 20, 16],
            "offset": [55, 65]
        },
        {
            "box": [75, 49, 19, 16],
            "offset": [56, 65]
        },
        {
            "box": [94, 49, 21, 14],
            "offset": [56, 66]
        },
        {
            "box": [115, 49, 20, 14],
            "offset": [56, 66]
        },
        {
            "box": [135, 49, 21, 14],
            "offset": [56, 66]
        },
        {
            "box": [156, 49, 19, 16],
            "offset": [56, 65]
        },
        {
            "box": [0, 65, 19, 15],
            "offset": [56, 65]
        },
        {
            "box": [19, 65, 21, 15],
            "offset": [55, 65]
        },
        {
            "box": [40, 65, 23, 15],
            "offset": [55, 65]
        },
        {
            "box": [63, 65, 25, 15],
            "offset": [54, 65]
        },
        {
            "box": [88, 65, 19, 15],
            "offset": [52, 65]
        },
        {
            "box": [107, 65, 21, 15],
            "offset": [50, 65]
        },
        {
            "box": [128, 65, 19, 15],
            "offset": [52, 65]
        },
        {
            "box": [147, 65, 25, 15],
            "offset": [54, 65]
        },
        {
            "box": [0, 80, 30, 15],
            "offset": [49, 64]
        },
        {
            "box": [30, 80, 24, 15],
            "offset": [51, 64]
        },
        {
            "box": [54, 80, 20, 14],
            "offset": [53, 66]
        },
        {
            "box": [74, 80, 23, 16],
            "offset": [50, 64]
        },
        {
            "box": [97, 80, 20, 13],
            "offset": [53, 67]
        },
        {
            "box": [117, 80, 19, 14],
            "offset": [54, 67]
        },
        {
            "box": [136, 80, 20, 13],
            "offset": [53, 67]
        },
        {
            "box": [156, 80, 23, 16],
            "offset": [50, 64]
        },
        {
            "box": [0, 96, 30, 14],
            "offset": [49, 64]
        },
        {
            "box": [30, 96, 30, 14],
            "offset": [49, 64]
        },
        {
            "box": [60, 96, 30, 14],
            "offset": [49, 64]
        },
        {
            "box": [90, 96, 29, 14],
            "offset": [49, 65]
        },
        {
            "box": [119, 96, 30, 14],
            "offset": [49, 64]
        },
        {
            "box": [149, 96, 30, 14],
            "offset": [49, 64]
        },
        {
            "box": [179, 96, 30, 14],
            "offset": [49, 64]
        },
        {
            "box": [209, 96, 29, 14],
            "offset": [50, 65]
        },
        {
            "box": [238, 96, 30, 14],
            "offset": [49, 64]
        },
        {
            "box": [0, 110, 19, 15],
            "offset": [56, 65]
        },
        {
            "box": [19, 110, 18, 16],
            "offset": [57, 66]
        },
        {
            "box": [37, 110, 18, 16],
            "offset": [57, 65]
        },
        {
            "box": [55, 110, 20, 15],
            "offset": [57, 65]
        },
        {
            "box": [75, 110, 20, 15],
            "offset": [57, 65]
        },
        {
            "box": [95, 110, 24, 15],
            "offset": [55, 66]
        },
        {
            "box": [119, 110, 21, 15],
            "offset": [57, 65]
        },
        {
            "box": [140, 110, 20, 15],
            "offset": [57, 65]
        },
        {
            "box": [160, 110, 19, 15],
            "offset": [57, 65]
        },
        {
            "box": [0, 126, 30, 15],
            "offset": [49, 64]
        },
        {
            "box": [30, 126, 30, 15],
            "offset": [49, 64]
        },
        {
            "box": [60, 126, 30, 15],
            "offset": [49, 64]
        },
        {
            "box": [90, 126, 29, 15],
            "offset": [50, 65]
        },
        {
            "box": [119, 126, 30, 15],
            "offset": [49, 64]
        },
        {
            "box": [149, 126, 30, 15],
            "offset": [49, 64]
        },
        {
            "box": [179, 126, 30, 15],
            "offset": [49, 64]
        },
        {
            "box": [209, 126, 29, 15],
            "offset": [49, 65]
        },
        {
            "box": [238, 126, 30, 15],
            "offset": [49, 64]
        },
        {
            "box": [0, 141, 30, 14],
            "offset": [49, 65]
        },
        {
            "box": [30, 141, 26, 14],
            "offset": [51, 66]
        },
        {
            "box": [56, 141, 22, 14],
            "offset": [52, 66]
        },
        {
            "box": [78, 141, 27, 15],
            "offset": [51, 64]
        },
        {
            "box": [105, 141, 33, 14],
            "offset": [50, 65]
        },
        {
            "box": [138, 141, 34, 14],
            "offset": [50, 65]
        },
        {
            "box": [0, 156, 19, 15],
            "offset": [56, 65]
        },
        {
            "box": [19, 156, 21, 15],
            "offset": [53, 67]
        },
        {
            "box": [40, 156, 24, 15],
            "offset": [52, 65]
        },
        {
            "box": [64, 156, 27, 15],
            "offset": [49, 65]
        },
        {
            "box": [91, 156, 30, 16],
            "offset": [45, 64]
        },
        {
            "box": [121, 156, 27, 16],
            "offset": [47, 64]
        },
        {
            "box": [0, 172, 30, 15],
            "offset": [49, 64]
        },
        {
            "box": [30, 172, 26, 15],
            "offset": [51, 64]
        },
        {
            "box": [56, 172, 22, 16],
            "offset": [51, 66]
        },
        {
            "box": [78, 172, 25, 15],
            "offset": [53, 65]
        },
        {
            "box": [103, 172, 30, 15],
            "offset": [53, 64]
        },
        {
            "box": [133, 172, 34, 15],
            "offset": [51, 64]
        },
        {
            "box": [0, 188, 30, 14],
            "offset": [48, 65]
        },
        {
            "box": [30, 188, 25, 16],
            "offset": [51, 66]
        },
        {
            "box": [55, 188, 21, 17],
            "offset": [54, 66]
        },
        {
            "box": [76, 188, 18, 14],
            "offset": [56, 67]
        },
        {
            "box": [94, 188, 23, 13],
            "offset": [56, 67]
        },
        {
            "box": [117, 188, 21, 16],
            "offset": [56, 62]
        },
        {
            "box": [138, 188, 22, 17],
            "offset": [56, 61]
        },
        {
            "box": [160, 188, 23, 15],
            "offset": [56, 63]
        },
        {
            "box": [183, 188, 24, 12],
            "offset": [56, 66]
        },
        {
            "box": [207, 188, 23, 13],
            "offset": [56, 67]
        },
        {
            "box": [230, 188, 18, 14],
            "offset": [56, 67]
        },
        {
            "box": [248, 188, 18, 14],
            "offset": [56, 67]
        },
        {
            "box": [266, 188, 18, 14],
            "offset": [56, 67]
        },
        {
            "box": [0, 205, 19, 14],
            "offset": [57, 65]
        },
        {
            "box": [19, 205, 20, 14],
            "offset": [57, 65]
        },
        {
            "box": [39, 205, 26, 14],
            "offset": [53, 65]
        },
        {
            "box": [65, 205, 29, 14],
            "offset": [51, 65]
        },
        {
            "box": [94, 205, 29, 14],
            "offset": [51, 65]
        },
        {
            "box": [123, 205, 26, 18],
            "offset": [50, 61]
        },
        {
            "box": [149, 205, 28, 19],
            "offset": [50, 60]
        },
        {
            "box": [177, 205, 31, 19],
            "offset": [50, 60]
        },
        {
            "box": [208, 205, 32, 16],
            "offset": [51, 63]
        },
        {
            "box": [240, 205, 29, 14],
            "offset": [51, 65]
        },
        {
            "box": [269, 205, 28, 14],
            "offset": [51, 65]
        },
        {
            "box": [297, 205, 22, 15],
            "offset": [51, 65]
        },
        {
            "box": [319, 205, 28, 14],
            "offset": [51, 65]
        },
        {
            "box": [0, 224, 30, 15],
            "offset": [48, 64]
        },
        {
            "box": [30, 224, 25, 15],
            "offset": [50, 64]
        },
        {
            "box": [55, 224, 20, 14],
            "offset": [54, 64]
        },
        {
            "box": [75, 224, 18, 13],
            "offset": [54, 66]
        },
        {
            "box": [93, 224, 19, 17],
            "offset": [51, 62]
        },
        {
            "box": [112, 224, 19, 17],
            "offset": [51, 62]
        },
        {
            "box": [131, 224, 19, 19],
            "offset": [51, 60]
        },
        {
            "box": [150, 224, 21, 21],
            "offset": [50, 58]
        },
        {
            "box": [171, 224, 20, 20],
            "offset": [50, 58]
        },
        {
            "box": [191, 224, 19, 16],
            "offset": [51, 63]
        },
        {
            "box": [210, 224, 18, 13],
            "offset": [52, 65]
        },
        {
            "box": [228, 224, 17, 12],
            "offset": [53, 66]
        },
        {
            "box": [245, 224, 16, 14],
            "offset": [54, 65]
        },
        {
            "box": [0, 245, 30, 15],
            "offset": [49, 64]
        },
        {
            "box": [30, 245, 30, 16],
            "offset": [51, 65]
        },
        {
            "box": [60, 245, 28, 18],
            "offset": [53, 70]
        },
        {
            "box": [88, 245, 29, 14],
            "offset": [52, 74]
        },
        {
            "box": [117, 245, 28, 10],
            "offset": [52, 79]
        },
        {
            "box": [145, 245, 28, 14],
            "offset": [53, 71]
        }
    ]
}