{
    "sprites": [
        {
            "box": [0, 0, 0, 0],
            "offset": [0, 0]
        },
        {
            "box": [0, 0, 0, 0],
            "offset": [0, 0]
        },
        {
            "box": [0, 0, 0, 0],
            "offset": [0, 0]
        },
        {
            "box": [0, 0, 0, 0],
            "offset": [0, 0]
        },
        {
            "box": [0, 0, 0, 0],
            "offset": [0, 0]
        },
        {
            "box": [0, 0, 0, 0],
            "offset": [0, 0]
        },
        {
            "box": [0, 0, 0, 0],
            "offset": [0, 0]
        },
        {
            "box": [0, 0, 3, 5],
            "offset": [56, 60]
        },
        {
            "box": [3, 0, 3, 5],
            "offset": [56, 60]
        },
        {
            "box": [6, 0, 3, 5],
            "offset": [56, 60]
        },
        {
            "box": [9, 0, 3, 5],
            "offset": [56, 60]
        },
        {
            "box": [12, 0, 3, 5],
            "offset": [56, 60]
        },
        {
            "box": [15, 0, 3, 5],
            "offset": [56, 60]
        },
        {
            "box": [18, 0, 3, 5],
            "offset": [56, 60]
        },
        {
            "box": [0, 5, 4, 5],
            "offset": [62, 61]
        },
        {
            "box": [4, 5, 4, 5],
            "offset": [62, 61]
        },
        {
            "box": [8, 5, 4, 5],
            "offset": [62, 61]
        },
        {
            "box": [12, 5, 4, 5],
            "offset": [62, 61]
        },
        {
            "box": [16, 5, 4, 5],
            "offset": [62, 61]
        },
        {
            "box": [20, 5, 4, 5],
            "offset": [62, 61]
        },
        {
            "box": [24, 5, 4, 5],
            "offset": [62, 61]
        },
        {
            "box": [0, 10, 0, 0],
            "offset": [0, 0]
        },
        {
            "box": [0, 10, 0, 0],
            "offset": [0, 0]
        },
        {
            "box": [0, 10, 0, 0],
            "offset": [0, 0]
        },
        {
            "box": [0, 10, 0, 0],
            "offset": [0, 0]
        },
        {
            "box": [0, 10, 0, 0],
            "offset": [0, 0]
        },
        {
            "box": [0, 10, 0, 0],
            "offset": [0, 0]
        },
        {
            "box": [0, 10, 0, 0],
            "offset": [0, 0]
        },
        {
            "box": [0, 10, 0, 0],
            "offset": [0, 0]
        },
        {
            "box": [0, 10, 3, 5],
            "offset": [56, 60]
        },
        {
            "box": [3, 10, 3, 5],
            "offset": [56, 60]
        },
        {
            "box": [6, 10, 3, 5],
            "offset": [56, 60]
        },
        {
            "box": [9, 10, 3, 5],
            "offset": [56, 60]
        },
        {
            "box": [12, 10, 3, 5],
            "offset": [54, 60]
        },
        {
            "box": [15, 10, 3, 5],
            "offset": [54, 60]
        },
        {
            "box": [18, 10, 3, 5],
            "offset": [54, 60]
        },
        {
            "box": [21, 10, 3, 5],
            "offset": [56, 60]
        },
        {
            "box": [0, 15, 4, 5],
            "offset": [62, 61]
        },
        {
            "box": [4, 15, 4, 5],
            "offset": [62, 61]
        },
        {
            "box": [8, 15, 4, 5],
            "offset": [62, 61]
        },
        {
            "box": [12, 15, 4, 5],
            "offset": [62, 61]
        },
        {
            "box": [16, 15, 4, 5],
            "offset": [62, 62]
        },
        {
            "box": [20, 15, 4, 5],
            "offset": [62, 62]
        },
        {
            "box": [24, 15, 4, 5],
            "offset": [62, 62]
        },
        {
            "box": [28, 15, 4, 5],
            "offset": [62, 61]
        },
        {
            "box": [0, 20, 0, 0],
            "offset": [0, 0]
        },
        {
            "box": [0, 20, 0, 0],
            "offset": [0, 0]
        },
        {
            "box": [0, 20, 0, 0],
            "offset": [0, 0]
        },
        {
            "box": [0, 20, 0, 0],
            "offset": [0, 0]
        },
        {
            "box": [0, 20, 0, 0],
            "offset": [0, 0]
        },
        {
            "box": [0, 20, 0, 0],
            "offset": [0, 0]
        },
        {
            "box": [0, 20, 0, 0],
            "offset": [0, 0]
        },
        {
            "box": [0, 20, 0, 0],
            "offset": [0, 0]
        },
        {
            "box": [0, 20, 0, 0],
            "offset": [0, 0]
        },
        {
            "box": [0, 20, 3, 5],
            "offset": [56, 60]
        },
        {
            "box": [3, 20, 3, 5],
            "offset": [56, 61]
        },
        {
            "box": [6, 20, 3, 5],
            "offset": [56, 60]
        },
        {
            "box": [9, 20, 3, 5],
            "offset": [56, 60]
        },
        {
            "box": [12, 20, 3, 5],
            "offset": [56, 60]
        },
        {
            "box": [15, 20, 3, 5],
            "offset": [56, 61]
        },
        {
            "box": [18, 20, 3, 5],
            "offset": [56, 60]
        },
        {
            "box": [21, 20, 3, 5],
            "offset": [56, 60]
        },
        {
            "box": [24, 20, 3, 5],
            "offset": [56, 60]
        },
        {
            "box": [0, 25, 4, 5],
            "offset": [62, 61]
        },
        {
            "box": [4, 25, 4, 5],
            "offset": [62, 61]
        },
        {
            "box": [8, 25, 4, 5],
            "offset": [62, 61]
        },
        {
            "box": [12, 25, 4, 5],
            "offset": [62, 62]
        },
        {
            "box": [16, 25, 4, 5],
            "offset": [62, 61]
        },
        {
            "box": [20, 25, 4, 5],
            "offset": [62, 61]
        },
        {
            "box": [24, 25, 4, 5],
            "offset": [62, 61]
        },
        {
            "box": [28, 25, 4, 5],
            "offset": [62, 62]
        },
        {
            "box": [32, 25, 4, 5],
            "offset": [62, 61]
        },
        {
            "box": [0, 30, 0, 0],
            "offset": [0, 0]
        },
        {
            "box": [0, 30, 0, 0],
            "offset": [0, 0]
        },
        {
            "box": [0, 30, 0, 0],
            "offset": [0, 0]
        },
        {
            "box": [0, 30, 0, 0],
            "offset": [0, 0]
        },
        {
            "box": [0, 30, 0, 0],
            "offset": [0, 0]
        },
        {
            "box": [0, 30, 0, 0],
            "offset": [0, 0]
        },
        {
            "box": [0, 30, 3, 5],
            "offset": [56, 60]
        },
        {
            "box": [3, 30, 3, 5],
            "offset": [54, 62]
        },
        {
            "box": [6, 30, 3, 5],
            "offset": [54, 60]
        },
        {
            "box": [9, 30, 3, 5],
            "offset": [53, 60]
        },
        {
            "box": [12, 30, 3, 5],
            "offset": [52, 60]
        },
        {
            "box": [15, 30, 3, 5],
            "offset": [52, 60]
        },
        {
            "box": [0, 35, 4, 5],
            "offset": [62, 61]
        },
        {
            "box": [4, 35, 4, 5],
            "offset": [62, 61]
        },
        {
            "box": [8, 35, 4, 5],
            "offset": [61, 63]
        },
        {
            "box": [12, 35, 4, 5],
            "offset": [64, 62]
        },
        {
            "box": [16, 35, 4, 5],
            "offset": [65, 61]
        },
        {
            "box": [20, 35, 4, 5],
            "offset": [65, 61]
        },
        {
            "box": [0, 40, 0, 0],
            "offset": [0, 0]
        },
        {
            "box": [0, 40, 0, 0],
            "offset": [0, 0]
        },
        {
            "box": [0, 40, 0, 0],
            "offset": [0, 0]
        },
        {
            "box": [0, 40, 0, 0],
            "offset": [0, 0]
        },
        {
            "box": [0, 40, 0, 0],
            "offset": [0, 0]
        },
        {
            "box": [0, 40, 0, 0],
            "offset": [0, 0]
        },
        {
            "box": [0, 40, 0, 0],
            "offset": [0, 0]
        },
        {
            "box": [0, 40, 0, 0],
            "offset": [0, 0]
        },
        {
            "box": [0, 40, 0, 0],
            "offset": [0, 0]
        },
        {
            "box": [0, 40, 0, 0],
            "offset": [0, 0]
        },
        {
            "box": [0, 40, 0, 0],
            "offset": [0, 0]
        },
        {
            "box": [0, 40, 0, 0],
            "offset": [0, 0]
        },
        {
            "box": [0, 40, 0, 0],
            "offset": [0, 0]
        },
        {
            "box": [0, 40, 3, 5],
            "offset": [57, 60]
        },
        {
            "box": [3, 40, 3, 5],
            "offset": [57, 60]
        },
        {
            "box": [6, 40, 3, 5],
            "offset": [57, 60]
        },
        {
            "box": [9, 40, 3, 5],
            "offset": [57, 60]
        },
        {
            "box": [12, 40, 3, 5],
            "offset": [57, 60]
        },
        {
            "box": [15, 40, 0, 0],
            "offset": [0, 0]
        },
        {
            "box": [15, 40, 3, 5],
            "offset": [57, 60]
        },
        {
            "box": [18, 40, 3, 5],
            "offset": [57, 60]
        },
        {
            "box": [21, 40, 3, 5],
            "offset": [57, 60]
        },
        {
            "box": [24, 40, 3, 5],
            "offset": [57, 60]
        },
        {
            "box": [27, 40, 3, 5],
            "offset": [57, 60]
        },
        {
            "box": [30, 40, 3, 5],
            "offset": [57, 60]
        },
        {
            "box": [33, 40, 3, 5],
            "offset": [57, 60]
        },
        {
            "box": [0, 45, 4, 5],
            "offset": [61, 61]
        },
        {
            "box": [4, 45, 4, 5],
            "offset": [61, 61]
        },
        {
            "box": [8, 45, 4, 5],
            "offset": [61, 61]
        },
        {
            "box": [12, 45, 4, 5],
            "offset": [61, 61]
        },
        {
            "box": [16, 45, 4, 5],
            "offset": [61, 61]
        },
        {
            "box": [20, 45, 4, 5],
            "offset": [61, 61]
        },
        {
            "box": [24, 45, 4, 5],
            "offset": [61, 61]
        },
        {
            "box": [28, 45, 4, 5],
            "offset": [61, 61]
        },
        {
            "box": [32, 45, 4, 5],
            "offset": [61, 61]
        },
        {
            "box": [36, 45, 4, 5],
            "offset": [61, 61]
        },
        {
            "box": [40, 45, 4, 5],
            "offset": [61, 61]
        },
        {
            "box": [44, 45, 4, 5],
            "offset": [61, 61]
        },
        {
            "box": [48, 45, 4, 5],
            "offset": [61, 61]
        },
        {
            "box": [0, 50, 4, 5],
            "offset": [62, 61]
        },
        {
            "box": [4, 50, 4, 5],
            "offset": [64, 62]
        },
        {
            "box": [8, 50, 4, 5],
            "offset": [64, 70]
        },
        {
            "box": [12, 50, 4, 5],
            "offset": [64, 75]
        },
        {
            "box": [16, 50, 0, 0],
            "offset": [0, 0]
        },
        {
            "box": [16, 50, 0, 0],
            "offset": [0, 0]
        }
    ]
}