{
    "sprites": [
        {
            "box": [0, 0, 26, 4],
            "offset": [51, 56]
        },
        {
            "box": [26, 0, 26, 4],
            "offset": [51, 56]
        },
        {
            "box": [52, 0, 26, 4],
            "offset": [51, 56]
        },
        {
            "box": [78, 0, 26, 4],
            "offset": [51, 56]
        },
        {
            "box": [104, 0, 26, 4],
            "offset": [51, 56]
        },
        {
            "box": [130, 0, 26, 4],
            "offset": [51, 56]
        },
        {
            "box": [156, 0, 26, 4],
            "offset": [51, 56]
        },
        {
            "box": [0, 4, 3, 4],
            "offset": [70, 56]
        },
        {
            "box": [3, 4, 3, 4],
            "offset": [70, 56]
        },
        {
            "box": [6, 4, 3, 4],
            "offset": [70, 56]
        },
        {
            "box": [9, 4, 3, 4],
            "offset": [70, 56]
        },
        {
            "box": [12, 4, 3, 4],
            "offset": [70, 56]
        },
        {
            "box": [15, 4, 3, 4],
            "offset": [70, 56]
        },
        {
            "box": [18, 4, 3, 4],
            "offset": [70, 56]
        },
        {
            "box": [0, 8, 26, 4],
            "offset": [51, 56]
        },
        {
            "box": [26, 8, 26, 4],
            "offset": [51, 56]
        },
        {
            "box": [52, 8, 26, 4],
            "offset": [51, 56]
        },
        {
            "box": [78, 8, 26, 4],
            "offset": [51, 56]
        },
        {
            "box": [104, 8, 26, 4],
            "offset": [51, 56]
        },
        {
            "box": [130, 8, 26, 4],
            "offset": [51, 56]
        },
        {
            "box": [156, 8, 26, 4],
            "offset": [51, 56]
        },
        {
            "box": [0, 12, 26, 4],
            "offset": [51, 57]
        },
        {
            "box": [26, 12, 26, 4],
            "offset": [51, 57]
        },
        {
            "box": [52, 12, 26, 4],
            "offset": [52, 56]
        },
        {
            "box": [78, 12, 26, 4],
            "offset": [52, 56]
        },
        {
            "box": [104, 12, 26, 4],
            "offset": [53, 57]
        },
        {
            "box": [130, 12, 26, 4],
            "offset": [53, 57]
        },
        {
            "box": [156, 12, 26, 4],
            "offset": [53, 57]
        },
        {
            "box": [182, 12, 26, 4],
            "offset": [52, 56]
        },
        {
            "box": [0, 16, 3, 4],
            "offset": [70, 56]
        },
        {
            "box": [3, 16, 3, 4],
            "offset": [70, 56]
        },
        {
            "box": [6, 16, 3, 4],
            "offset": [70, 56]
        },
        {
            "box": [9, 16, 3, 4],
            "offset": [70, 56]
        },
        {
            "box": [12, 16, 3, 4],
            "offset": [68, 56]
        },
        {
            "box": [15, 16, 3, 4],
            "offset": [68, 56]
        },
        {
            "box": [18, 16, 3, 4],
            "offset": [68, 56]
        },
        {
            "box": [21, 16, 3, 4],
            "offset": [70, 56]
        },
        {
            "box": [0, 20, 26, 4],
            "offset": [51, 56]
        },
        {
            "box": [26, 20, 26, 4],
            "offset": [51, 56]
        },
        {
            "box": [52, 20, 26, 4],
            "offset": [51, 56]
        },
        {
            "box": [78, 20, 26, 4],
            "offset": [51, 56]
        },
        {
            "box": [104, 20, 26, 4],
            "offset": [51, 57]
        },
        {
            "box": [130, 20, 26, 4],
            "offset": [51, 57]
        },
        {
            "box": [156, 20, 26, 4],
            "offset": [51, 57]
        },
        {
            "box": [182, 20, 24, 4],
            "offset": [52, 57]
        },
        {
            "box": [0, 24, 26, 4],
            "offset": [51, 56]
        },
        {
            "box": [26, 24, 26, 4],
            "offset": [51, 56]
        },
        {
            "box": [52, 24, 26, 4],
            "offset": [51, 56]
        },
        {
            "box": [78, 24, 26, 4],
            "offset": [51, 57]
        },
        {
            "box": [104, 24, 26, 4],
            "offset": [51, 56]
        },
        {
            "box": [130, 24, 26, 4],
            "offset": [51, 56]
        },
        {
            "box": [156, 24, 26, 4],
            "offset": [51, 56]
        },
        {
            "box": [182, 24, 26, 4],
            "offset": [51, 57]
        },
        {
            "box": [208, 24, 26, 4],
            "offset": [51, 56]
        },
        {
            "box": [0, 28, 3, 4],
            "offset": [70, 56]
        },
        {
            "box": [3, 28, 3, 4],
            "offset": [70, 57]
        },
        {
            "box": [6, 28, 3, 4],
            "offset": [70, 56]
        },
        {
            "box": [9, 28, 3, 4],
            "offset": [70, 56]
        },
        {
            "box": [12, 28, 3, 4],
            "offset": [70, 56]
        },
        {
            "box": [15, 28, 3, 4],
            "offset": [70, 57]
        },
        {
            "box": [18, 28, 3, 4],
            "offset": [70, 56]
        },
        {
            "box": [21, 28, 3, 4],
            "offset": [70, 56]
        },
        {
            "box": [24, 28, 3, 4],
            "offset": [70, 56]
        },
        {
            "box": [0, 32, 26, 4],
            "offset": [51, 56]
        },
        {
            "box": [26, 32, 26, 4],
            "offset": [51, 56]
        },
        {
            "box": [52, 32, 26, 4],
            "offset": [51, 56]
        },
        {
            "box": [78, 32, 26, 4],
            "offset": [51, 57]
        },
        {
            "box": [104, 32, 26, 4],
            "offset": [51, 56]
        },
        {
            "box": [130, 32, 26, 4],
            "offset": [51, 56]
        },
        {
            "box": [156, 32, 26, 4],
            "offset": [51, 56]
        },
        {
            "box": [182, 32, 26, 4],
            "offset": [51, 57]
        },
        {
            "box": [208, 32, 26, 4],
            "offset": [51, 56]
        },
        {
            "box": [0, 36, 26, 4],
            "offset": [51, 56]
        },
        {
            "box": [26, 36, 26, 4],
            "offset": [51, 56]
        },
        {
            "box": [52, 36, 26, 4],
            "offset": [50, 56]
        },
        {
            "box": [78, 36, 26, 4],
            "offset": [52, 55]
        },
        {
            "box": [104, 36, 26, 4],
            "offset": [53, 55]
        },
        {
            "box": [130, 36, 26, 4],
            "offset": [53, 55]
        },
        {
            "box": [0, 40, 3, 4],
            "offset": [70, 56]
        },
        {
            "box": [3, 40, 3, 4],
            "offset": [68, 58]
        },
        {
            "box": [6, 40, 3, 4],
            "offset": [68, 56]
        },
        {
            "box": [9, 40, 3, 4],
            "offset": [67, 56]
        },
        {
            "box": [12, 40, 3, 4],
            "offset": [66, 56]
        },
        {
            "box": [15, 40, 3, 4],
            "offset": [66, 56]
        },
        {
            "box": [0, 44, 26, 4],
            "offset": [51, 56]
        },
        {
            "box": [26, 44, 26, 4],
            "offset": [51, 56]
        },
        {
            "box": [52, 44, 26, 4],
            "offset": [50, 58]
        },
        {
            "box": [78, 44, 26, 4],
            "offset": [53, 57]
        },
        {
            "box": [104, 44, 26, 4],
            "offset": [54, 56]
        },
        {
            "box": [130, 44, 26, 4],
            "offset": [54, 56]
        },
        {
            "box": [0, 48, 26, 4],
            "offset": [50, 56]
        },
        {
            "box": [26, 48, 26, 4],
            "offset": [50, 56]
        },
        {
            "box": [52, 48, 26, 4],
            "offset": [51, 56]
        },
        {
            "box": [78, 48, 26, 4],
            "offset": [50, 56]
        },
        {
            "box": [104, 48, 26, 4],
            "offset": [50, 56]
        },
        {
            "box": [130, 48, 26, 4],
            "offset": [50, 56]
        },
        {
            "box": [156, 48, 26, 4],
            "offset": [50, 56]
        },
        {
            "box": [182, 48, 26, 4],
            "offset": [50, 56]
        },
        {
            "box": [208, 48, 26, 4],
            "offset": [50, 56]
        },
        {
            "box": [234, 48, 26, 4],
            "offset": [50, 56]
        },
        {
            "box": [260, 48, 26, 4],
            "offset": [50, 56]
        },
        {
            "box": [286, 48, 26, 4],
            "offset": [50, 56]
        },
        {
            "box": [312, 48, 26, 4],
            "offset": [50, 56]
        },
        {
            "box": [0, 52, 3, 4],
            "offset": [71, 56]
        },
        {
            "box": [3, 52, 3, 4],
            "offset": [71, 56]
        },
        {
            "box": [6, 52, 3, 4],
            "offset": [71, 56]
        },
        {
            "box": [9, 52, 3, 4],
            "offset": [71, 56]
        },
        {
            "box": [12, 52, 3, 4],
            "offset": [71, 56]
        },
        {
            "box": [15, 52, 3, 4],
            "offset": [71, 56]
        },
        {
            "box": [18, 52, 3, 4],
            "offset": [71, 56]
        },
        {
            "box": [21, 52, 3, 4],
            "offset": [71, 56]
        },
        {
            "box": [24, 52, 3, 4],
            "offset": [71, 56]
        },
        {
            "box": [27, 52, 3, 4],
            "offset": [71, 56]
        },
        {
            "box": [30, 52, 3, 4],
            "offset": [71, 56]
        },
        {
            "box": [33, 52, 3, 4],
            "offset": [71, 56]
        },
        {
            "box": [36, 52, 3, 4],
            "offset": [71, 56]
        },
        {
            "box": [0, 56, 26, 4],
            "offset": [50, 56]
        },
        {
            "box": [26, 56, 26, 4],
            "offset": [50, 56]
        },
        {
            "box": [52, 56, 26, 4],
            "offset": [50, 56]
        },
        {
            "box": [78, 56, 26, 4],
            "offset": [50, 56]
        },
        {
            "box": [104, 56, 26, 4],
            "offset": [50, 56]
        },
        {
            "box": [130, 56, 26, 4],
            "offset": [50, 56]
        },
        {
            "box": [156, 56, 26, 4],
            "offset": [50, 56]
        },
        {
            "box": [182, 56, 26, 4],
            "offset": [50, 56]
        },
        {
            "box": [208, 56, 25, 4],
            "offset": [51, 56]
        },
        {
            "box": [233, 56, 26, 4],
            "offset": [50, 56]
        },
        {
            "box": [259, 56, 26, 4],
            "offset": [50, 56]
        },
        {
            "box": [285, 56, 26, 4],
            "offset": [50, 56]
        },
        {
            "box": [311, 56, 26, 4],
            "offset": [50, 56]
        },
        {
            "box": [0, 60, 26, 4],
            "offset": [51, 57]
        },
        {
            "box": [26, 60, 26, 4],
            "offset": [53, 57]
        },
        {
            "box": [52, 60, 26, 4],
            "offset": [53, 63]
        },
        {
            "box": [78, 60, 26, 4],
            "offset": [53, 67]
        },
        {
            "box": [104, 60, 26, 4],
            "offset": [53, 73]
        },
        {
            "box": [130, 60, 26, 4],
            "offset": [53, 87]
        }
    ]
}