{
    "sprites": [
        {
            "box": [0, 0, 30, 21],
            "offset": [49, 47]
        },
        {
            "box": [30, 0, 30, 21],
            "offset": [49, 47]
        },
        {
            "box": [60, 0, 30, 21],
            "offset": [49, 47]
        },
        {
            "box": [90, 0, 30, 21],
            "offset": [49, 47]
        },
        {
            "box": [120, 0, 30, 21],
            "offset": [49, 47]
        },
        {
            "box": [150, 0, 30, 21],
            "offset": [49, 47]
        },
        {
            "box": [180, 0, 30, 21],
            "offset": [49, 47]
        },
        {
            "box": [0, 21, 29, 17],
            "offset": [50, 46]
        },
        {
            "box": [29, 21, 29, 17],
            "offset": [50, 46]
        },
        {
            "box": [58, 21, 29, 17],
            "offset": [50, 46]
        },
        {
            "box": [87, 21, 29, 17],
            "offset": [50, 46]
        },
        {
            "box": [116, 21, 29, 17],
            "offset": [50, 46]
        },
        {
            "box": [145, 21, 29, 17],
            "offset": [50, 46]
        },
        {
            "box": [174, 21, 29, 17],
            "offset": [50, 46]
        },
        {
            "box": [0, 38, 30, 19],
            "offset": [49, 45]
        },
        {
            "box": [30, 38, 30, 19],
            "offset": [49, 45]
        },
        {
            "box": [60, 38, 30, 19],
            "offset": [49, 45]
        },
        {
            "box": [90, 38, 30, 19],
            "offset": [49, 45]
        },
        {
            "box": [120, 38, 30, 19],
            "offset": [49, 45]
        },
        {
            "box": [150, 38, 30, 19],
            "offset": [49, 45]
        },
        {
            "box": [180, 38, 30, 19],
            "offset": [49, 45]
        },
        {
            "box": [0, 57, 30, 21],
            "offset": [49, 48]
        },
        {
            "box": [30, 57, 30, 21],
            "offset": [48, 48]
        },
        {
            "box": [60, 57, 30, 21],
            "offset": [50, 47]
        },
        {
            "box": [90, 57, 30, 21],
            "offset": [50, 47]
        },
        {
            "box": [120, 57, 30, 21],
            "offset": [51, 48]
        },
        {
            "box": [150, 57, 30, 21],
            "offset": [51, 48]
        },
        {
            "box": [180, 57, 30, 21],
            "offset": [51, 48]
        },
        {
            "box": [210, 57, 30, 21],
            "offset": [50, 47]
        },
        {
            "box": [0, 78, 29, 17],
            "offset": [50, 46]
        },
        {
            "box": [29, 78, 29, 17],
            "offset": [50, 46]
        },
        {
            "box": [58, 78, 29, 17],
            "offset": [50, 46]
        },
        {
            "box": [87, 78, 29, 17],
            "offset": [50, 46]
        },
        {
            "box": [116, 78, 29, 17],
            "offset": [48, 46]
        },
        {
            "box": [145, 78, 29, 17],
            "offset": [48, 46]
        },
        {
            "box": [174, 78, 29, 17],
            "offset": [48, 46]
        },
        {
            "box": [203, 78, 29, 17],
            "offset": [50, 46]
        },
        {
            "box": [0, 95, 30, 19],
            "offset": [49, 45]
        },
        {
            "box": [30, 95, 30, 19],
            "offset": [49, 45]
        },
        {
            "box": [60, 95, 30, 19],
            "offset": [49, 45]
        },
        {
            "box": [90, 95, 30, 19],
            "offset": [49, 45]
        },
        {
            "box": [120, 95, 30, 19],
            "offset": [49, 46]
        },
        {
            "box": [150, 95, 30, 19],
            "offset": [49, 46]
        },
        {
            "box": [180, 95, 30, 19],
            "offset": [49, 46]
        },
        {
            "box": [210, 95, 30, 19],
            "offset": [49, 45]
        },
        {
            "box": [0, 114, 30, 21],
            "offset": [49, 47]
        },
        {
            "box": [30, 114, 30, 21],
            "offset": [49, 47]
        },
        {
            "box": [60, 114, 30, 21],
            "offset": [49, 47]
        },
        {
            "box": [90, 114, 30, 21],
            "offset": [49, 48]
        },
        {
            "box": [120, 114, 30, 21],
            "offset": [49, 47]
        },
        {
            "box": [150, 114, 30, 21],
            "offset": [49, 47]
        },
        {
            "box": [180, 114, 30, 21],
            "offset": [49, 47]
        },
        {
            "box": [210, 114, 30, 21],
            "offset": [49, 48]
        },
        {
            "box": [240, 114, 30, 21],
            "offset": [49, 47]
        },
        {
            "box": [0, 135, 29, 17],
            "offset": [50, 46]
        },
        {
            "box": [29, 135, 29, 17],
            "offset": [50, 47]
        },
        {
            "box": [58, 135, 29, 17],
            "offset": [50, 47]
        },
        {
            "box": [87, 135, 29, 17],
            "offset": [50, 46]
        },
        {
            "box": [116, 135, 29, 17],
            "offset": [50, 46]
        },
        {
            "box": [145, 135, 29, 17],
            "offset": [50, 47]
        },
        {
            "box": [174, 135, 29, 17],
            "offset": [50, 47]
        },
        {
            "box": [203, 135, 29, 17],
            "offset": [50, 46]
        },
        {
            "box": [232, 135, 29, 17],
            "offset": [50, 46]
        },
        {
            "box": [0, 152, 30, 19],
            "offset": [49, 45]
        },
        {
            "box": [30, 152, 30, 19],
            "offset": [49, 45]
        },
        {
            "box": [60, 152, 30, 19],
            "offset": [49, 45]
        },
        {
            "box": [90, 152, 30, 19],
            "offset": [49, 46]
        },
        {
            "box": [120, 152, 30, 19],
            "offset": [49, 45]
        },
        {
            "box": [150, 152, 30, 19],
            "offset": [49, 45]
        },
        {
            "box": [180, 152, 30, 19],
            "offset": [49, 45]
        },
        {
            "box": [210, 152, 30, 19],
            "offset": [49, 46]
        },
        {
            "box": [240, 152, 30, 19],
            "offset": [49, 45]
        },
        {
            "box": [0, 171, 30, 21],
            "offset": [49, 47]
        },
        {
            "box": [30, 171, 30, 21],
            "offset": [48, 47]
        },
        {
            "box": [60, 171, 30, 21],
            "offset": [47, 47]
        },
        {
            "box": [90, 171, 30, 21],
            "offset": [50, 46]
        },
        {
            "box": [120, 171, 30, 21],
            "offset": [51, 46]
        },
        {
            "box": [150, 171, 30, 21],
            "offset": [51, 46]
        },
        {
            "box": [0, 192, 29, 17],
            "offset": [50, 46]
        },
        {
            "box": [29, 192, 29, 17],
            "offset": [49, 48]
        },
        {
            "box": [58, 192, 29, 17],
            "offset": [49, 47]
        },
        {
            "box": [87, 192, 29, 17],
            "offset": [48, 46]
        },
        {
            "box": [116, 192, 29, 17],
            "offset": [48, 46]
        },
        {
            "box": [145, 192, 29, 17],
            "offset": [48, 46]
        },
        {
            "box": [0, 209, 30, 19],
            "offset": [49, 45]
        },
        {
            "box": [30, 209, 30, 19],
            "offset": [49, 47]
        },
        {
            "box": [60, 209, 30, 19],
            "offset": [48, 46]
        },
        {
            "box": [90, 209, 30, 19],
            "offset": [50, 45]
        },
        {
            "box": [120, 209, 30, 19],
            "offset": [51, 45]
        },
        {
            "box": [150, 209, 30, 19],
            "offset": [51, 45]
        },
        {
            "box": [0, 228, 30, 21],
            "offset": [49, 47]
        },
        {
            "box": [30, 228, 30, 21],
            "offset": [48, 47]
        },
        {
            "box": [60, 228, 30, 21],
            "offset": [49, 47]
        },
        {
            "box": [90, 228, 30, 21],
            "offset": [48, 47]
        },
        {
            "box": [120, 228, 30, 21],
            "offset": [48, 47]
        },
        {
            "box": [150, 228, 30, 21],
            "offset": [48, 47]
        },
        {
            "box": [180, 228, 30, 21],
            "offset": [48, 47]
        },
        {
            "box": [210, 228, 30, 21],
            "offset": [48, 47]
        },
        {
            "box": [240, 228, 30, 21],
            "offset": [48, 47]
        },
        {
            "box": [270, 228, 30, 21],
            "offset": [48, 47]
        },
        {
            "box": [300, 228, 30, 21],
            "offset": [48, 47]
        },
        {
            "box": [330, 228, 30, 21],
            "offset": [48, 47]
        },
        {
            "box": [360, 228, 30, 21],
            "offset": [48, 47]
        },
        {
            "box": [0, 249, 29, 17],
            "offset": [51, 46]
        },
        {
            "box": [29, 249, 29, 17],
            "offset": [51, 46]
        },
        {
            "box": [58, 249, 29, 17],
            "offset": [51, 46]
        },
        {
            "box": [87, 249, 29, 17],
            "offset": [51, 48]
        },
        {
            "box": [116, 249, 29, 17],
            "offset": [51, 46]
        },
        {
            "box": [145, 249, 29, 17],
            "offset": [51, 46]
        },
        {
            "box": [174, 249, 29, 17],
            "offset": [51, 46]
        },
        {
            "box": [203, 249, 29, 17],
            "offset": [51, 46]
        },
        {
            "box": [232, 249, 29, 17],
            "offset": [51, 46]
        },
        {
            "box": [261, 249, 29, 17],
            "offset": [51, 46]
        },
        {
            "box": [290, 249, 29, 17],
            "offset": [51, 46]
        },
        {
            "box": [319, 249, 29, 17],
            "offset": [51, 46]
        },
        {
            "box": [348, 249, 29, 17],
            "offset": [51, 46]
        },
        {
            "box": [0, 266, 30, 19],
            "offset": [49, 45]
        },
        {
            "box": [30, 266, 30, 19],
            "offset": [48, 45]
        },
        {
            "box": [60, 266, 30, 19],
            "offset": [48, 45]
        },
        {
            "box": [90, 266, 30, 19],
            "offset": [48, 45]
        },
        {
            "box": [120, 266, 30, 19],
            "offset": [48, 45]
        },
        {
            "box": [150, 266, 30, 19],
            "offset": [48, 45]
        },
        {
            "box": [180, 266, 30, 19],
            "offset": [48, 45]
        },
        {
            "box": [210, 266, 30, 19],
            "offset": [48, 45]
        },
        {
            "box": [240, 266, 30, 19],
            "offset": [48, 45]
        },
        {
            "box": [270, 266, 30, 19],
            "offset": [48, 45]
        },
        {
            "box": [300, 266, 30, 19],
            "offset": [48, 45]
        },
        {
            "box": [330, 266, 30, 19],
            "offset": [48, 45]
        },
        {
            "box": [360, 266, 30, 19],
            "offset": [48, 45]
        },
        {
            "box": [0, 285, 30, 19],
            "offset": [49, 46]
        },
        {
            "box": [30, 285, 30, 19],
            "offset": [50, 46]
        },
        {
            "box": [60, 285, 30, 19],
            "offset": [50, 53]
        },
        {
            "box": [90, 285, 30, 19],
            "offset": [50, 58]
        },
        {
            "box": [120, 285, 30, 21],
            "offset": [51, 64]
        },
        {
            "box": [150, 285, 30, 21],
            "offset": [51, 74]
        }
    ]
}